step,pose_x,pose_y,pose_yaw,vel_x,vel_y,vel_yaw,ctrl_x,ctrl_y,ctrl_yaw,r_com,r_cov,dt
0,0.00,0.00,358.44,0.00,0.00,0.00,0.00,0.00,0.00,55.00,25.00,3.00
1,0.00,0.00,358.44,0.00,0.00,0.00,-0.00,-0.00,0.00,55.00,25.00,3.00
2,-0.03,0.04,359.06,0.00,0.00,0.00,-0.00,-0.00,0.00,55.00,25.00,3.00
3,-0.18,0.07,359.45,0.00,0.00,0.00,-0.00,-0.00,0.00,55.00,25.00,3.00
4,0.06,0.16,358.55,0.00,0.00,0.00,-0.00,-0.00,0.00,55.00,25.00,3.00
5,0.05,0.10,0.30,0.00,0.00,0.00,-0.00,-0.00,0.00,55.00,25.00,3.00
