step,pose_x,pose_y,pose_yaw,vel_x,vel_y,vel_yaw,ctrl_x,ctrl_y,ctrl_yaw,r_com,r_cov,dt
0,0.00,0.00,1.17,0.00,0.00,0.00,0.00,0.00,0.00,55.00,25.00,3.00
1,0.00,0.00,1.17,0.00,0.00,0.00,0.00,0.00,0.00,55.00,25.00,3.00
2,79.94,-0.10,0.09,0.00,0.00,0.00,0.00,0.00,0.00,55.00,25.00,3.00
3,79.94,-0.10,0.09,-3.00,0.01,0.00,-1.00,0.00,0.00,55.00,25.00,3.00
4,79.94,-0.10,0.09,-6.00,0.01,0.00,-1.00,0.00,0.00,55.00,25.00,3.00
5,79.97,-0.06,359.68,-6.63,0.01,0.00,-0.21,-0.00,0.00,55.00,25.00,3.00
6,79.97,-0.06,359.68,-4.21,0.00,0.00,0.81,-0.00,0.00,55.00,25.00,3.00
7,79.95,0.05,359.35,-4.19,0.00,0.00,0.00,-0.00,0.00,55.00,25.00,3.00
