%!PS-Adobe-3.0 EPSF-3.0
%%Creator: (MATLAB, The Mathworks, Inc. Version 9.0.0.341360 \(R2016a\). Operating System: Linux)
%%Title: /mnt/ntfs-hd/Users/Sidney/Documents/Courses/PhD/code/topology_control_ardrone/uav_sim/pc+compensation.eps
%%CreationDate: 2017-02-13T11:09:03
%%Pages: (atend)
%%BoundingBox: 0 0 1440 751
%%LanguageLevel: 3
%%EndComments
%%BeginProlog
%%BeginResource: procset (Apache XML Graphics Std ProcSet) 1.2 0
%%Version: 1.2 0
%%Copyright: (Copyright 2001-2003,2010 The Apache Software Foundation. License terms: http://www.apache.org/licenses/LICENSE-2.0)
/bd{bind def}bind def
/ld{load def}bd
/GR/grestore ld
/M/moveto ld
/LJ/setlinejoin ld
/C/curveto ld
/f/fill ld
/LW/setlinewidth ld
/GC/setgray ld
/t/show ld
/N/newpath ld
/CT/concat ld
/cp/closepath ld
/S/stroke ld
/L/lineto ld
/CC/setcmykcolor ld
/A/ashow ld
/GS/gsave ld
/RC/setrgbcolor ld
/RM/rmoveto ld
/ML/setmiterlimit ld
/re {4 2 roll M
1 index 0 rlineto
0 exch rlineto
neg 0 rlineto
cp } bd
/_ctm matrix def
/_tm matrix def
/BT { _ctm currentmatrix pop matrix _tm copy pop 0 0 moveto } bd
/ET { _ctm setmatrix } bd
/iTm { _ctm setmatrix _tm concat } bd
/Tm { _tm astore pop iTm 0 0 moveto } bd
/ux 0.0 def
/uy 0.0 def
/F {
  /Tp exch def
  /Tf exch def
  Tf findfont Tp scalefont setfont
  /cf Tf def  /cs Tp def
} bd
/ULS {currentpoint /uy exch def /ux exch def} bd
/ULE {
  /Tcx currentpoint pop def
  gsave
  newpath
  cf findfont cs scalefont dup
  /FontMatrix get 0 get /Ts exch def /FontInfo get dup
  /UnderlinePosition get Ts mul /To exch def
  /UnderlineThickness get Ts mul /Tt exch def
  ux uy To add moveto  Tcx uy To add lineto
  Tt setlinewidth stroke
  grestore
} bd
/OLE {
  /Tcx currentpoint pop def
  gsave
  newpath
  cf findfont cs scalefont dup
  /FontMatrix get 0 get /Ts exch def /FontInfo get dup
  /UnderlinePosition get Ts mul /To exch def
  /UnderlineThickness get Ts mul /Tt exch def
  ux uy To add cs add moveto Tcx uy To add cs add lineto
  Tt setlinewidth stroke
  grestore
} bd
/SOE {
  /Tcx currentpoint pop def
  gsave
  newpath
  cf findfont cs scalefont dup
  /FontMatrix get 0 get /Ts exch def /FontInfo get dup
  /UnderlinePosition get Ts mul /To exch def
  /UnderlineThickness get Ts mul /Tt exch def
  ux uy To add cs 10 mul 26 idiv add moveto Tcx uy To add cs 10 mul 26 idiv add lineto
  Tt setlinewidth stroke
  grestore
} bd
/QT {
/Y22 exch store
/X22 exch store
/Y21 exch store
/X21 exch store
currentpoint
/Y21 load 2 mul add 3 div exch
/X21 load 2 mul add 3 div exch
/X21 load 2 mul /X22 load add 3 div
/Y21 load 2 mul /Y22 load add 3 div
/X22 load /Y22 load curveto
} bd
/SSPD {
dup length /d exch dict def
{
/v exch def
/k exch def
currentpagedevice k known {
/cpdv currentpagedevice k get def
v cpdv ne {
/upd false def
/nullv v type /nulltype eq def
/nullcpdv cpdv type /nulltype eq def
nullv nullcpdv or
{
/upd true def
} {
/sametype v type cpdv type eq def
sametype {
v type /arraytype eq {
/vlen v length def
/cpdvlen cpdv length def
vlen cpdvlen eq {
0 1 vlen 1 sub {
/i exch def
/obj v i get def
/cpdobj cpdv i get def
obj cpdobj ne {
/upd true def
exit
} if
} for
} {
/upd true def
} ifelse
} {
v type /dicttype eq {
v {
/dv exch def
/dk exch def
/cpddv cpdv dk get def
dv cpddv ne {
/upd true def
exit
} if
} forall
} {
/upd true def
} ifelse
} ifelse
} if
} ifelse
upd true eq {
d k v put
} if
} if
} if
} forall
d length 0 gt {
d setpagedevice
} if
} bd
%%EndResource
%%BeginResource: procset (Apache XML Graphics EPS ProcSet) 1.0 0
%%Version: 1.0 0
%%Copyright: (Copyright 2002-2003 The Apache Software Foundation. License terms: http://www.apache.org/licenses/LICENSE-2.0)
/BeginEPSF { %def
/b4_Inc_state save def         % Save state for cleanup
/dict_count countdictstack def % Count objects on dict stack
/op_count count 1 sub def      % Count objects on operand stack
userdict begin                 % Push userdict on dict stack
/showpage { } def              % Redefine showpage, { } = null proc
0 setgray 0 setlinecap         % Prepare graphics state
1 setlinewidth 0 setlinejoin
10 setmiterlimit [ ] 0 setdash newpath
/languagelevel where           % If level not equal to 1 then
{pop languagelevel             % set strokeadjust and
1 ne                           % overprint to their defaults.
{false setstrokeadjust false setoverprint
} if
} if
} bd
/EndEPSF { %def
count op_count sub {pop} repeat            % Clean up stacks
countdictstack dict_count sub {end} repeat
b4_Inc_state restore
} bd
%%EndResource
%FOPBeginFontDict
%%IncludeResource: font Courier-Bold
%%IncludeResource: font Helvetica
%%IncludeResource: font Courier-BoldOblique
%%IncludeResource: font Courier-Oblique
%%IncludeResource: font Times-Roman
%%IncludeResource: font Helvetica-BoldOblique
%%IncludeResource: font Helvetica-Bold
%%IncludeResource: font Helvetica-Oblique
%%IncludeResource: font Times-BoldItalic
%%IncludeResource: font Courier
%%IncludeResource: font Times-Italic
%%IncludeResource: font Times-Bold
%%IncludeResource: font Symbol
%%IncludeResource: font ZapfDingbats
%FOPEndFontDict
%%BeginResource: encoding WinAnsiEncoding
/WinAnsiEncoding [
/.notdef /.notdef /.notdef /.notdef /.notdef
/.notdef /.notdef /.notdef /.notdef /.notdef
/.notdef /.notdef /.notdef /.notdef /.notdef
/.notdef /.notdef /.notdef /.notdef /.notdef
/.notdef /.notdef /.notdef /.notdef /.notdef
/.notdef /.notdef /.notdef /.notdef /.notdef
/.notdef /.notdef /space /exclam /quotedbl
/numbersign /dollar /percent /ampersand /quotesingle
/parenleft /parenright /asterisk /plus /comma
/hyphen /period /slash /zero /one
/two /three /four /five /six
/seven /eight /nine /colon /semicolon
/less /equal /greater /question /at
/A /B /C /D /E
/F /G /H /I /J
/K /L /M /N /O
/P /Q /R /S /T
/U /V /W /X /Y
/Z /bracketleft /backslash /bracketright /asciicircum
/underscore /quoteleft /a /b /c
/d /e /f /g /h
/i /j /k /l /m
/n /o /p /q /r
/s /t /u /v /w
/x /y /z /braceleft /bar
/braceright /asciitilde /bullet /Euro /bullet
/quotesinglbase /florin /quotedblbase /ellipsis /dagger
/daggerdbl /circumflex /perthousand /Scaron /guilsinglleft
/OE /bullet /Zcaron /bullet /bullet
/quoteleft /quoteright /quotedblleft /quotedblright /bullet
/endash /emdash /asciitilde /trademark /scaron
/guilsinglright /oe /bullet /zcaron /Ydieresis
/space /exclamdown /cent /sterling /currency
/yen /brokenbar /section /dieresis /copyright
/ordfeminine /guillemotleft /logicalnot /sfthyphen /registered
/macron /degree /plusminus /twosuperior /threesuperior
/acute /mu /paragraph /middot /cedilla
/onesuperior /ordmasculine /guillemotright /onequarter /onehalf
/threequarters /questiondown /Agrave /Aacute /Acircumflex
/Atilde /Adieresis /Aring /AE /Ccedilla
/Egrave /Eacute /Ecircumflex /Edieresis /Igrave
/Iacute /Icircumflex /Idieresis /Eth /Ntilde
/Ograve /Oacute /Ocircumflex /Otilde /Odieresis
/multiply /Oslash /Ugrave /Uacute /Ucircumflex
/Udieresis /Yacute /Thorn /germandbls /agrave
/aacute /acircumflex /atilde /adieresis /aring
/ae /ccedilla /egrave /eacute /ecircumflex
/edieresis /igrave /iacute /icircumflex /idieresis
/eth /ntilde /ograve /oacute /ocircumflex
/otilde /odieresis /divide /oslash /ugrave
/uacute /ucircumflex /udieresis /yacute /thorn
/ydieresis
] def
%%EndResource
%FOPBeginFontReencode
/Courier-Bold findfont
dup length dict begin
  {1 index /FID ne {def} {pop pop} ifelse} forall
  /Encoding WinAnsiEncoding def
  currentdict
end
/Courier-Bold exch definefont pop
/Helvetica findfont
dup length dict begin
  {1 index /FID ne {def} {pop pop} ifelse} forall
  /Encoding WinAnsiEncoding def
  currentdict
end
/Helvetica exch definefont pop
/Courier-BoldOblique findfont
dup length dict begin
  {1 index /FID ne {def} {pop pop} ifelse} forall
  /Encoding WinAnsiEncoding def
  currentdict
end
/Courier-BoldOblique exch definefont pop
/Courier-Oblique findfont
dup length dict begin
  {1 index /FID ne {def} {pop pop} ifelse} forall
  /Encoding WinAnsiEncoding def
  currentdict
end
/Courier-Oblique exch definefont pop
/Times-Roman findfont
dup length dict begin
  {1 index /FID ne {def} {pop pop} ifelse} forall
  /Encoding WinAnsiEncoding def
  currentdict
end
/Times-Roman exch definefont pop
/Helvetica-BoldOblique findfont
dup length dict begin
  {1 index /FID ne {def} {pop pop} ifelse} forall
  /Encoding WinAnsiEncoding def
  currentdict
end
/Helvetica-BoldOblique exch definefont pop
/Helvetica-Bold findfont
dup length dict begin
  {1 index /FID ne {def} {pop pop} ifelse} forall
  /Encoding WinAnsiEncoding def
  currentdict
end
/Helvetica-Bold exch definefont pop
/Helvetica-Oblique findfont
dup length dict begin
  {1 index /FID ne {def} {pop pop} ifelse} forall
  /Encoding WinAnsiEncoding def
  currentdict
end
/Helvetica-Oblique exch definefont pop
/Times-BoldItalic findfont
dup length dict begin
  {1 index /FID ne {def} {pop pop} ifelse} forall
  /Encoding WinAnsiEncoding def
  currentdict
end
/Times-BoldItalic exch definefont pop
/Courier findfont
dup length dict begin
  {1 index /FID ne {def} {pop pop} ifelse} forall
  /Encoding WinAnsiEncoding def
  currentdict
end
/Courier exch definefont pop
/Times-Italic findfont
dup length dict begin
  {1 index /FID ne {def} {pop pop} ifelse} forall
  /Encoding WinAnsiEncoding def
  currentdict
end
/Times-Italic exch definefont pop
/Times-Bold findfont
dup length dict begin
  {1 index /FID ne {def} {pop pop} ifelse} forall
  /Encoding WinAnsiEncoding def
  currentdict
end
/Times-Bold exch definefont pop
%FOPEndFontReencode
%%EndProlog
%%Page: 1 1
%%PageBoundingBox: 0 0 1440 751
%%BeginPageSetup
[1 0 0 -1 0 751] CT
%%EndPageSetup
GS
[0.75 0 0 0.75 0 0.25] CT
N
0 0 M
1920 0 L
1920 1001 L
0 1001 L
0 0 L
cp
clip
1 GC
N
0 0 1920 1001 re
f
GR
GS
[0.75 0 0 0.75 0 0.25] CT
1 GC
N
0 0 1920 1001 re
f
GR
GS
[0.75 0 0 0.75 0 0.25] CT
1 GC
N
250 891 M
1738 891 L
1738 75 L
250 75 L
cp
f
GR
GS
[0.75 0 0 0.75 0 0.25] CT
0.149 GC
2 setlinecap
1 LJ
0.667 LW
N
250 891 M
1738 891 L
S
GR
GS
[0.75 0 0 0.75 0 0.25] CT
0.149 GC
2 setlinecap
1 LJ
0.667 LW
N
250 75 M
1738 75 L
S
GR
GS
[0.75 0 0 0.75 0 0.25] CT
0.149 GC
2 setlinecap
1 LJ
0.667 LW
N
250 891 M
250 876.12 L
S
GR
GS
[0.75 0 0 0.75 0 0.25] CT
0.149 GC
2 setlinecap
1 LJ
0.667 LW
N
498 891 M
498 876.12 L
S
GR
GS
[0.75 0 0 0.75 0 0.25] CT
0.149 GC
2 setlinecap
1 LJ
0.667 LW
N
746 891 M
746 876.12 L
S
GR
GS
[0.75 0 0 0.75 0 0.25] CT
0.149 GC
2 setlinecap
1 LJ
0.667 LW
N
994 891 M
994 876.12 L
S
GR
GS
[0.75 0 0 0.75 0 0.25] CT
0.149 GC
2 setlinecap
1 LJ
0.667 LW
N
1242 891 M
1242 876.12 L
S
GR
GS
[0.75 0 0 0.75 0 0.25] CT
0.149 GC
2 setlinecap
1 LJ
0.667 LW
N
1490 891 M
1490 876.12 L
S
GR
GS
[0.75 0 0 0.75 0 0.25] CT
0.149 GC
2 setlinecap
1 LJ
0.667 LW
N
1738 891 M
1738 876.12 L
S
GR
GS
[0.75 0 0 0.75 0 0.25] CT
0.149 GC
2 setlinecap
1 LJ
0.667 LW
N
250 75 M
250 89.88 L
S
GR
GS
[0.75 0 0 0.75 0 0.25] CT
0.149 GC
2 setlinecap
1 LJ
0.667 LW
N
498 75 M
498 89.88 L
S
GR
GS
[0.75 0 0 0.75 0 0.25] CT
0.149 GC
2 setlinecap
1 LJ
0.667 LW
N
746 75 M
746 89.88 L
S
GR
GS
[0.75 0 0 0.75 0 0.25] CT
0.149 GC
2 setlinecap
1 LJ
0.667 LW
N
994 75 M
994 89.88 L
S
GR
GS
[0.75 0 0 0.75 0 0.25] CT
0.149 GC
2 setlinecap
1 LJ
0.667 LW
N
1242 75 M
1242 89.88 L
S
GR
GS
[0.75 0 0 0.75 0 0.25] CT
0.149 GC
2 setlinecap
1 LJ
0.667 LW
N
1490 75 M
1490 89.88 L
S
GR
GS
[0.75 0 0 0.75 0 0.25] CT
0.149 GC
2 setlinecap
1 LJ
0.667 LW
N
1738 75 M
1738 89.88 L
S
GR
GS
[0.75 0 0 0.75 187.5 672.49998] CT
0.149 GC
/Helvetica 13.333 F
GS
[1 0 0 1 0 0] CT
-4.5 13 moveto 
1 -1 scale
(0) t 
GR
GR
GS
[0.75 0 0 0.75 373.5 672.49998] CT
0.149 GC
/Helvetica 13.333 F
GS
[1 0 0 1 0 0] CT
-12.5 13 moveto 
1 -1 scale
(200) t 
GR
GR
GS
[0.75 0 0 0.75 559.5 672.49998] CT
0.149 GC
/Helvetica 13.333 F
GS
[1 0 0 1 0 0] CT
-12.5 13 moveto 
1 -1 scale
(400) t 
GR
GR
GS
[0.75 0 0 0.75 745.5 672.49998] CT
0.149 GC
/Helvetica 13.333 F
GS
[1 0 0 1 0 0] CT
-12.5 13 moveto 
1 -1 scale
(600) t 
GR
GR
GS
[0.75 0 0 0.75 931.5 672.49998] CT
0.149 GC
/Helvetica 13.333 F
GS
[1 0 0 1 0 0] CT
-12.5 13 moveto 
1 -1 scale
(800) t 
GR
GR
GS
[0.75 0 0 0.75 1117.5 672.49998] CT
0.149 GC
/Helvetica 13.333 F
GS
[1 0 0 1 0 0] CT
-17 13 moveto 
1 -1 scale
(1000) t 
GR
GR
GS
[0.75 0 0 0.75 1303.5 672.49998] CT
0.149 GC
/Helvetica 13.333 F
GS
[1 0 0 1 0 0] CT
-17 13 moveto 
1 -1 scale
(1200) t 
GR
GR
GS
[0.75 0 0 0.75 0 0.25] CT
0.149 GC
2 setlinecap
1 LJ
0.667 LW
N
250 891 M
250 75 L
S
GR
GS
[0.75 0 0 0.75 0 0.25] CT
0.149 GC
2 setlinecap
1 LJ
0.667 LW
N
1738 891 M
1738 75 L
S
GR
GS
[0.75 0 0 0.75 0 0.25] CT
0.149 GC
2 setlinecap
1 LJ
0.667 LW
N
250 891 M
264.88 891 L
S
GR
GS
[0.75 0 0 0.75 0 0.25] CT
0.149 GC
2 setlinecap
1 LJ
0.667 LW
N
250 775.583 M
264.88 775.583 L
S
GR
GS
[0.75 0 0 0.75 0 0.25] CT
0.149 GC
2 setlinecap
1 LJ
0.667 LW
N
250 660.165 M
264.88 660.165 L
S
GR
GS
[0.75 0 0 0.75 0 0.25] CT
0.149 GC
2 setlinecap
1 LJ
0.667 LW
N
250 544.748 M
264.88 544.748 L
S
GR
GS
[0.75 0 0 0.75 0 0.25] CT
0.149 GC
2 setlinecap
1 LJ
0.667 LW
N
250 429.331 M
264.88 429.331 L
S
GR
GS
[0.75 0 0 0.75 0 0.25] CT
0.149 GC
2 setlinecap
1 LJ
0.667 LW
N
250 313.914 M
264.88 313.914 L
S
GR
GS
[0.75 0 0 0.75 0 0.25] CT
0.149 GC
2 setlinecap
1 LJ
0.667 LW
N
250 198.496 M
264.88 198.496 L
S
GR
GS
[0.75 0 0 0.75 0 0.25] CT
0.149 GC
2 setlinecap
1 LJ
0.667 LW
N
250 83.079 M
264.88 83.079 L
S
GR
GS
[0.75 0 0 0.75 0 0.25] CT
0.149 GC
2 setlinecap
1 LJ
0.667 LW
N
1738 891 M
1723.12 891 L
S
GR
GS
[0.75 0 0 0.75 0 0.25] CT
0.149 GC
2 setlinecap
1 LJ
0.667 LW
N
1738 775.583 M
1723.12 775.583 L
S
GR
GS
[0.75 0 0 0.75 0 0.25] CT
0.149 GC
2 setlinecap
1 LJ
0.667 LW
N
1738 660.165 M
1723.12 660.165 L
S
GR
GS
[0.75 0 0 0.75 0 0.25] CT
0.149 GC
2 setlinecap
1 LJ
0.667 LW
N
1738 544.748 M
1723.12 544.748 L
S
GR
GS
[0.75 0 0 0.75 0 0.25] CT
0.149 GC
2 setlinecap
1 LJ
0.667 LW
N
1738 429.331 M
1723.12 429.331 L
S
GR
GS
[0.75 0 0 0.75 0 0.25] CT
0.149 GC
2 setlinecap
1 LJ
0.667 LW
N
1738 313.914 M
1723.12 313.914 L
S
GR
GS
[0.75 0 0 0.75 0 0.25] CT
0.149 GC
2 setlinecap
1 LJ
0.667 LW
N
1738 198.496 M
1723.12 198.496 L
S
GR
GS
[0.75 0 0 0.75 0 0.25] CT
0.149 GC
2 setlinecap
1 LJ
0.667 LW
N
1738 83.079 M
1723.12 83.079 L
S
GR
GS
[0.75 0 0 0.75 183.5 668.5] CT
0.149 GC
/Helvetica 13.333 F
GS
[1 0 0 1 0 0] CT
-13 4.5 moveto 
1 -1 scale
(-5) t 
GR
GR
GS
[0.75 0 0 0.75 183.5 581.93707] CT
0.149 GC
/Helvetica 13.333 F
GS
[1 0 0 1 0 0] CT
-9 4.5 moveto 
1 -1 scale
(0) t 
GR
GR
GS
[0.75 0 0 0.75 183.5 495.3741] CT
0.149 GC
/Helvetica 13.333 F
GS
[1 0 0 1 0 0] CT
-9 4.5 moveto 
1 -1 scale
(5) t 
GR
GR
GS
[0.75 0 0 0.75 183.5 408.81117] CT
0.149 GC
/Helvetica 13.333 F
GS
[1 0 0 1 0 0] CT
-17 4.5 moveto 
1 -1 scale
(10) t 
GR
GR
GS
[0.75 0 0 0.75 183.5 322.24822] CT
0.149 GC
/Helvetica 13.333 F
GS
[1 0 0 1 0 0] CT
-17 4.5 moveto 
1 -1 scale
(15) t 
GR
GR
GS
[0.75 0 0 0.75 183.5 235.6853] CT
0.149 GC
/Helvetica 13.333 F
GS
[1 0 0 1 0 0] CT
-17 4.5 moveto 
1 -1 scale
(20) t 
GR
GR
GS
[0.75 0 0 0.75 183.5 149.12234] CT
0.149 GC
/Helvetica 13.333 F
GS
[1 0 0 1 0 0] CT
-17 4.5 moveto 
1 -1 scale
(25) t 
GR
GR
GS
[0.75 0 0 0.75 183.5 62.55941] CT
0.149 GC
/Helvetica 13.333 F
GS
[1 0 0 1 0 0] CT
-17 4.5 moveto 
1 -1 scale
(30) t 
GR
GR
GS
[0.75 0 0 0.75 0 0.25] CT
0 0.447 0.741 RC
1 LJ
0.667 LW
N
251.24 83.079 M
252.48 83.079 L
253.72 83.079 L
254.96 83.079 L
256.2 83.079 L
257.44 83.079 L
258.68 83.079 L
259.92 83.079 L
261.16 83.079 L
262.4 83.079 L
263.64 83.079 L
264.88 83.079 L
266.12 83.079 L
267.36 83.079 L
268.6 83.079 L
269.84 83.079 L
271.08 83.079 L
272.32 83.079 L
273.56 83.079 L
274.8 83.079 L
276.04 83.079 L
277.28 83.079 L
278.52 83.079 L
279.76 83.079 L
281 83.079 L
282.24 83.079 L
283.48 83.079 L
284.72 83.079 L
285.96 83.079 L
287.2 83.079 L
288.44 83.079 L
289.68 83.079 L
290.92 83.079 L
292.16 83.079 L
293.4 83.079 L
294.64 83.425 L
295.88 85.623 L
297.12 89.611 L
298.36 95.015 L
299.6 101.44 L
300.84 108.551 L
302.08 116.101 L
303.32 123.923 L
304.56 130.573 L
305.8 138.242 L
307.04 145.555 L
308.28 152.717 L
309.52 159.838 L
310.76 166.975 L
312 172.956 L
313.24 180.183 L
314.48 187.467 L
315.72 194.799 L
316.96 202.148 L
318.2 209.507 L
319.44 215.65 L
320.68 223.033 L
321.92 230.427 L
323.16 237.831 L
324.4 245.243 L
325.64 252.661 L
326.88 258.232 L
328.12 263.176 L
329.36 266.582 L
330.6 268.675 L
331.84 269.576 L
333.08 269.339 L
334.32 267.985 L
335.56 265.575 L
336.8 262.268 L
338.04 259.598 L
339.28 258.23 L
340.52 257.546 L
341.76 257.874 L
343 259.195 L
344.24 261.454 L
345.48 264.566 L
346.72 268.424 L
347.96 272.111 L
349.2 276.946 L
350.44 282.145 L
351.68 287.632 L
352.92 293.346 L
354.16 299.236 L
355.4 305.261 L
356.64 310.361 L
357.88 316.556 L
359.12 322.819 L
360.36 329.138 L
361.6 335.5 L
362.84 341.893 L
364.08 348.311 L
365.32 354.746 L
366.56 361.194 L
367.8 366.575 L
369.04 373.037 L
370.28 379.436 L
371.52 385.766 L
372.76 392.044 L
374 398.282 L
375.24 404.489 L
376.48 410.674 L
377.72 415.815 L
378.96 421.971 L
380.2 428.1 L
381.44 434.172 L
382.68 439.196 L
383.92 445.192 L
385.16 451.16 L
386.4 457.107 L
387.64 463.038 L
388.88 468.957 L
390.12 473.881 L
391.36 479.783 L
392.6 485.636 L
393.84 491.394 L
395.08 496.136 L
396.32 501.774 L
397.56 507.367 L
398.8 512.924 L
400.04 517.535 L
401.28 523.047 L
402.52 528.542 L
403.76 534.024 L
405 538.542 L
406.24 543.875 L
407.48 549.132 L
408.72 554.329 L
409.96 558.622 L
411.2 563.738 L
412.44 568.822 L
413.68 573.04 L
414.92 578.082 L
416.16 583.107 L
417.4 588.119 L
418.64 592.288 L
419.88 597.284 L
421.12 602.275 L
422.36 606.432 L
423.6 611.418 L
424.84 615.572 L
426.08 620.556 L
427.32 625.539 L
428.56 630.508 L
429.8 634.543 L
431.04 639.255 L
432.28 643.85 L
433.52 648.35 L
434.76 652.04 L
436 656.407 L
437.24 660.718 L
438.48 664.984 L
439.72 668.509 L
440.96 672.7 L
442.2 676.816 L
443.44 680.194 L
444.68 684.196 L
445.92 688.151 L
447.16 691.415 L
448.4 695.3 L
449.64 699.155 L
450.88 702.349 L
452.12 706.162 L
453.36 709.934 L
454.6 713.012 L
455.84 716.636 L
457.08 720.195 L
458.32 723.697 L
459.56 726.578 L
460.8 729.997 L
462.04 733.38 L
463.28 736.174 L
464.52 739.502 L
465.76 742.777 L
467 745.442 L
468.24 748.572 L
469.48 751.638 L
470.72 754.149 L
471.96 757.117 L
473.2 760.04 L
474.44 762.924 L
475.68 765.3 L
476.92 768.124 L
478.16 770.774 L
479.4 772.788 L
480.64 774.993 L
481.88 776.987 L
483.12 778.789 L
484.36 780.154 L
485.6 781.64 L
486.84 782.97 L
488.08 784.152 L
489.32 785.031 L
490.56 785.998 L
491.8 786.898 L
493.04 787.597 L
494.28 788.378 L
495.52 789.097 L
496.76 789.65 L
498 790.26 L
499.24 790.813 L
500.48 791.232 L
501.72 791.684 L
502.96 792.082 L
504.2 792.427 L
505.44 792.721 L
506.68 792.927 L
507.92 793.127 L
509.16 793.278 L
510.4 793.367 L
511.64 793.429 L
512.88 793.443 L
514.12 793.421 L
515.36 793.418 L
516.6 793.438 L
517.84 793.483 L
519.08 793.54 L
520.32 793.63 L
521.56 793.746 L
522.8 793.886 L
524.04 794.05 L
525.28 794.205 L
526.52 794.405 L
527.76 794.584 L
529 794.714 L
530.24 794.848 L
531.48 794.958 L
532.72 795.032 L
533.96 795.099 L
535.2 795.142 L
536.44 795.16 L
537.68 795.161 L
538.92 795.137 L
540.16 795.096 L
541.4 795.021 L
542.64 794.938 L
543.88 794.813 L
545.12 794.66 L
546.36 794.513 L
547.6 794.311 L
548.84 794.122 L
550.08 793.872 L
551.32 793.639 L
552.56 793.326 L
553.8 792.978 L
555.04 792.661 L
556.28 792.249 L
557.52 791.803 L
558.76 791.405 L
560 790.898 L
561.24 790.451 L
562.48 789.885 L
563.72 789.288 L
564.96 788.767 L
566.2 788.114 L
567.44 787.433 L
568.68 786.843 L
569.92 786.11 L
571.16 785.479 L
572.4 784.699 L
573.64 783.894 L
574.88 783.205 L
576.12 782.364 L
577.36 781.653 L
578.6 780.787 L
579.84 779.909 L
581.08 779.168 L
582.32 778.269 L
583.56 777.359 L
584.8 776.593 L
586.04 775.667 L
587.28 774.74 L
588.52 773.998 L
589.76 773.148 L
591 772.339 L
592.24 771.697 L
593.48 770.962 L
594.72 770.379 L
595.96 769.713 L
597.2 769.085 L
598.44 768.492 L
599.68 768.024 L
600.92 767.494 L
602.16 766.998 L
603.4 766.61 L
604.64 766.173 L
605.88 765.767 L
607.12 765.453 L
608.36 765.104 L
609.6 764.836 L
610.84 764.541 L
612.08 764.275 L
613.32 764.037 L
614.56 763.86 L
615.8 763.673 L
617.04 763.512 L
618.28 763.398 L
619.52 763.284 L
620.76 763.209 L
622 763.141 L
623.24 763.097 L
624.48 763.079 L
625.72 763.079 L
626.96 763.096 L
628.2 763.138 L
629.44 763.19 L
630.68 763.273 L
631.92 763.377 L
633.16 763.481 L
634.4 763.625 L
635.64 763.761 L
636.88 763.944 L
638.12 764.114 L
639.36 764.337 L
640.6 764.538 L
641.84 764.8 L
643.08 765.034 L
644.32 765.333 L
645.56 765.598 L
646.8 765.934 L
648.04 766.228 L
649.28 766.566 L
650.52 766.877 L
651.76 767.118 L
653 767.383 L
654.24 767.586 L
655.48 767.807 L
656.72 767.972 L
657.96 768.15 L
659.2 768.28 L
660.44 768.415 L
661.68 768.51 L
662.92 768.604 L
664.16 768.665 L
665.4 768.718 L
666.64 768.746 L
667.88 768.76 L
669.12 768.755 L
670.36 768.731 L
671.6 768.685 L
672.84 768.631 L
674.08 768.547 L
675.32 768.46 L
676.56 768.338 L
677.8 768.219 L
679.04 768.058 L
680.28 767.908 L
681.52 767.708 L
682.76 767.526 L
684 767.288 L
685.24 767.074 L
686.48 766.799 L
687.72 766.554 L
688.96 766.242 L
690.2 765.967 L
691.44 765.619 L
692.68 765.316 L
693.92 764.934 L
695.16 764.603 L
696.4 764.191 L
697.64 763.834 L
698.88 763.392 L
700.12 763.011 L
701.36 762.542 L
702.6 762.14 L
703.84 761.73 L
705.08 761.225 L
706.32 760.796 L
707.56 760.271 L
708.8 759.826 L
710.04 759.282 L
711.28 758.823 L
712.52 758.263 L
713.76 757.791 L
715 757.218 L
716.24 756.735 L
717.48 756.15 L
718.72 755.658 L
719.96 755.062 L
721.2 754.562 L
722.44 753.986 L
723.68 753.539 L
724.92 753.122 L
726.16 752.658 L
727.4 752.303 L
728.64 751.911 L
729.88 751.614 L
731.12 751.343 L
732.36 751.05 L
733.6 750.833 L
734.84 750.611 L
736.08 750.459 L
737.32 750.315 L
738.56 750.226 L
739.8 750.164 L
741.04 750.126 L
742.28 750.123 L
743.52 750.146 L
744.76 750.206 L
746 750.284 L
747.24 750.385 L
748.48 750.539 L
749.72 750.692 L
750.96 750.906 L
752.2 751.109 L
753.44 751.334 L
754.68 751.632 L
755.92 751.904 L
757.16 752.197 L
758.4 752.577 L
759.64 752.922 L
760.88 753.369 L
762.12 753.77 L
763.36 754.283 L
764.6 754.738 L
765.84 755.216 L
767.08 755.82 L
768.32 756.349 L
769.56 756.9 L
770.8 757.589 L
772.04 758.187 L
773.28 758.932 L
774.52 759.576 L
775.76 760.238 L
777 761.059 L
778.24 761.764 L
779.48 762.633 L
780.72 763.377 L
781.96 764.138 L
783.2 765.067 L
784.44 765.85 L
785.68 766.798 L
786.92 767.597 L
788.16 768.402 L
789.4 769.215 L
790.64 770.201 L
791.88 771.03 L
793.12 772.034 L
794.36 772.878 L
795.6 773.705 L
796.84 774.654 L
798.08 775.409 L
799.32 776.134 L
800.56 776.965 L
801.8 777.625 L
803.04 778.258 L
804.28 778.981 L
805.52 779.555 L
806.76 780.102 L
808 780.625 L
809.24 781.218 L
810.48 781.686 L
811.72 782.129 L
812.96 782.629 L
814.2 783.019 L
815.44 783.386 L
816.68 783.795 L
817.92 784.11 L
819.16 784.403 L
820.4 784.672 L
821.64 784.966 L
822.88 785.186 L
824.12 785.384 L
825.36 785.56 L
826.6 785.743 L
827.84 785.872 L
829.08 785.98 L
830.32 786.068 L
831.56 786.146 L
832.8 786.19 L
834.04 786.214 L
835.28 786.219 L
836.52 786.205 L
837.76 786.164 L
839 786.11 L
840.24 786.039 L
841.48 785.951 L
842.72 785.823 L
843.96 785.699 L
845.2 785.56 L
846.44 785.372 L
847.68 785.2 L
848.92 785.013 L
850.16 784.812 L
851.4 784.552 L
852.64 784.322 L
853.88 784.079 L
855.12 783.823 L
856.36 783.5 L
857.6 783.218 L
858.84 782.925 L
860.08 782.559 L
861.32 782.241 L
862.56 781.912 L
863.8 781.572 L
865.04 781.15 L
866.28 780.787 L
867.52 780.413 L
868.76 780.029 L
870 779.634 L
871.24 779.148 L
872.48 778.731 L
873.72 778.304 L
874.96 777.867 L
876.2 777.331 L
877.44 776.873 L
878.68 776.406 L
879.92 775.929 L
881.16 775.443 L
882.4 774.947 L
883.64 774.34 L
884.88 773.823 L
886.12 773.297 L
887.36 772.761 L
888.6 772.216 L
889.84 771.55 L
891.08 770.984 L
892.32 770.408 L
893.56 769.823 L
894.8 769.229 L
896.04 768.505 L
897.28 767.89 L
898.52 767.267 L
899.76 766.635 L
901 765.994 L
902.24 765.344 L
903.48 764.686 L
904.72 764.02 L
905.96 763.345 L
907.2 762.661 L
908.44 761.97 L
909.68 761.271 L
910.92 760.564 L
912.16 759.849 L
913.4 759.127 L
914.64 758.398 L
915.88 757.514 L
917.12 756.77 L
918.36 756.028 L
919.6 755.315 L
920.84 754.631 L
922.08 753.976 L
923.32 753.349 L
924.56 752.749 L
925.8 752.176 L
927.04 751.629 L
928.28 751.007 L
929.52 750.516 L
930.76 750.051 L
932 749.611 L
933.24 749.202 L
934.48 748.821 L
935.72 748.47 L
936.96 748.148 L
938.2 747.854 L
939.44 747.588 L
940.68 747.35 L
941.92 747.139 L
943.16 746.922 L
944.4 746.77 L
945.64 746.647 L
946.88 746.559 L
948.12 746.582 L
949.36 746.677 L
950.6 746.804 L
951.84 746.962 L
953.08 747.151 L
954.32 747.341 L
955.56 747.515 L
956.8 747.616 L
958.04 747.678 L
959.28 747.701 L
960.52 747.686 L
961.76 747.634 L
963 747.546 L
964.24 747.392 L
965.48 747.225 L
966.72 747.07 L
967.96 746.958 L
969.2 746.887 L
970.44 746.858 L
971.68 746.869 L
972.92 746.919 L
974.16 747.032 L
975.4 747.168 L
976.64 747.341 L
977.88 747.552 L
979.12 747.796 L
980.36 748.073 L
981.6 748.383 L
982.84 748.724 L
984.08 749.175 L
985.32 749.584 L
986.56 750.024 L
987.8 750.492 L
989.04 750.99 L
990.28 751.516 L
991.52 752.069 L
992.76 752.649 L
994 753.255 L
995.24 753.887 L
996.48 754.678 L
997.72 755.364 L
998.96 756.073 L
1000.2 756.806 L
1001.44 757.56 L
1002.68 758.336 L
1003.92 759.125 L
1005.16 760.088 L
1006.4 760.904 L
1007.64 761.732 L
1008.88 765.153 L
1010.12 766.034 L
1011.36 767.461 L
1012.6 768.361 L
1013.84 769.265 L
1015.08 770.175 L
1016.32 771.09 L
1017.56 772.009 L
1018.8 772.934 L
1020.04 773.864 L
1021.28 774.799 L
1022.52 775.738 L
1023.76 776.681 L
1025 777.593 L
1026.24 778.465 L
1027.48 779.3 L
1028.72 779.941 L
1029.96 780.71 L
1031.2 781.445 L
1032.44 782.146 L
1033.68 782.815 L
1034.92 783.452 L
1036.16 784.059 L
1037.4 784.638 L
1038.64 785.22 L
1039.88 785.817 L
1041.12 786.427 L
1042.36 786.925 L
1043.6 787.558 L
1044.84 788.204 L
1046.08 788.861 L
1047.32 789.53 L
1048.56 790.073 L
1049.8 790.76 L
1051.04 791.456 L
1052.28 792.135 L
1053.52 792.786 L
1054.76 793.412 L
1056 793.895 L
1057.24 794.476 L
1058.48 795.033 L
1059.72 795.566 L
1060.96 796.076 L
1062.2 796.467 L
1063.44 796.936 L
1064.68 797.381 L
1065.92 797.796 L
1067.16 798.18 L
1068.4 798.466 L
1069.64 798.797 L
1070.88 799.098 L
1072.12 799.371 L
1073.36 799.615 L
1074.6 799.79 L
1075.84 799.983 L
1077.08 800.15 L
1078.32 800.289 L
1079.56 800.402 L
1080.8 800.473 L
1082.04 800.538 L
1083.28 800.578 L
1084.52 800.593 L
1085.76 800.582 L
1087 800.548 L
1088.24 800.49 L
1089.48 800.409 L
1090.72 800.305 L
1091.96 800.178 L
1093.2 800.024 L
1094.44 799.844 L
1095.68 799.638 L
1096.92 799.406 L
1098.16 799.204 L
1099.4 798.929 L
1100.64 798.63 L
1101.88 798.307 L
1103.12 797.962 L
1104.36 797.595 L
1105.6 797.206 L
1106.84 796.795 L
1108.08 796.362 L
1109.32 795.908 L
1110.56 795.529 L
1111.8 795.037 L
1113.04 794.42 L
1114.28 793.992 L
1115.52 793.441 L
1116.76 792.87 L
1118 792.28 L
1119.24 791.672 L
1120.48 791.047 L
1121.72 790.405 L
1122.96 789.747 L
1124.2 789.073 L
1125.44 788.383 L
1126.68 787.678 L
1127.92 786.957 L
1129.16 786.222 L
1130.4 785.473 L
1131.64 784.71 L
1132.88 784.09 L
1134.12 783.305 L
1135.36 782.511 L
1136.6 781.708 L
1137.84 780.894 L
1139.08 780.071 L
1140.32 779.239 L
1141.56 778.398 L
1142.8 777.548 L
1144.04 776.861 L
1145.28 775.995 L
1146.52 775.127 L
1147.76 774.295 L
1149 773.504 L
1150.24 772.753 L
1151.48 772.18 L
1152.72 771.496 L
1153.96 770.849 L
1155.2 770.237 L
1156.44 769.771 L
1157.68 769.219 L
1158.92 768.7 L
1160.16 768.212 L
1161.4 767.844 L
1162.64 767.412 L
1163.88 767.01 L
1165.12 766.637 L
1166.36 766.361 L
1167.6 766.041 L
1168.84 765.75 L
1170.08 765.538 L
1171.32 765.298 L
1172.56 765.087 L
1173.8 764.903 L
1175.04 764.777 L
1176.28 764.643 L
1177.52 764.537 L
1178.76 764.458 L
1180 764.414 L
1181.24 764.383 L
1182.48 764.379 L
1183.72 764.394 L
1184.96 764.437 L
1186.2 764.489 L
1187.44 764.577 L
1188.68 764.69 L
1189.92 764.797 L
1191.16 764.953 L
1192.4 765.132 L
1193.64 765.292 L
1194.88 765.513 L
1196.12 765.755 L
1197.36 766.018 L
1198.6 766.245 L
1199.84 766.546 L
1201.08 766.795 L
1202.32 767.08 L
1203.56 767.334 L
1204.8 767.515 L
1206.04 767.714 L
1207.28 767.884 L
1208.52 767.998 L
1209.76 768.116 L
1211 768.206 L
1212.24 768.258 L
1213.48 768.298 L
1214.72 768.312 L
1215.96 768.305 L
1217.2 768.272 L
1218.44 768.215 L
1219.68 768.151 L
1220.92 768.05 L
1222.16 767.925 L
1223.4 767.777 L
1224.64 767.642 L
1225.88 767.454 L
1227.12 767.287 L
1228.36 767.06 L
1229.6 766.811 L
1230.84 766.597 L
1232.08 766.312 L
1233.32 766.068 L
1234.56 765.747 L
1235.8 765.405 L
1237.04 765.118 L
1238.28 764.743 L
1239.52 764.429 L
1240.76 764.019 L
1242 763.679 L
1243.24 763.16 L
1244.48 762.836 L
1245.72 762.462 L
1246.96 762.186 L
1248.2 761.869 L
1249.44 761.583 L
1250.68 761.377 L
1251.92 761.145 L
1253.16 760.981 L
1254.4 760.802 L
1255.64 760.679 L
1256.88 760.551 L
1258.12 760.467 L
1259.36 760.379 L
1260.6 760.307 L
1261.84 760.263 L
1263.08 760.222 L
1264.32 760.198 L
1265.56 760.19 L
1266.8 760.196 L
1268.04 760.212 L
1269.28 760.246 L
1270.52 760.285 L
1271.76 760.348 L
1273 760.411 L
1274.24 760.505 L
1275.48 760.593 L
1276.72 760.719 L
1277.96 760.862 L
1279.2 760.989 L
1280.44 761.163 L
1281.68 761.315 L
1282.92 761.52 L
1284.16 761.696 L
1285.4 761.932 L
1286.64 762.132 L
1287.88 762.398 L
1289.12 762.622 L
1290.36 762.916 L
1291.6 763.163 L
1292.84 763.419 L
1294.08 763.754 L
1295.32 764.104 L
1296.56 764.394 L
1297.8 764.77 L
1299.04 765.081 L
1300.28 765.482 L
1301.52 765.812 L
1302.76 766.235 L
1304 766.582 L
1305.24 767.024 L
1306.48 767.477 L
1307.72 767.846 L
1308.96 768.316 L
1310.2 768.795 L
1311.44 769.185 L
1312.68 769.679 L
1313.92 770.08 L
1315.16 770.587 L
1316.4 771.077 L
1317.64 771.452 L
1318.88 771.899 L
1320.12 772.323 L
1321.36 772.645 L
1322.6 773.028 L
1323.84 773.317 L
1325.08 773.659 L
1326.32 773.917 L
1327.56 774.22 L
1328.8 774.447 L
1330.04 774.712 L
1331.28 774.956 L
1332.52 775.137 L
1333.76 775.346 L
1335 775.498 L
1336.24 775.671 L
1337.48 775.795 L
1338.72 775.934 L
1339.96 776.032 L
1341.2 776.138 L
1342.44 776.225 L
1343.68 776.283 L
1344.92 776.339 L
1346.16 776.372 L
1347.4 776.398 L
1348.64 776.407 L
1349.88 776.403 L
1351.12 776.384 L
1352.36 776.357 L
1353.6 776.309 L
1354.84 776.261 L
1356.08 776.187 L
1357.32 776.117 L
1358.56 776.036 L
1359.8 775.973 L
1361.04 775.934 L
1362.28 775.902 L
1363.52 775.887 L
1364.76 775.884 L
1366 775.893 L
1367.24 775.918 L
1368.48 775.949 L
1369.72 776.002 L
1370.96 776.055 L
1372.2 776.134 L
1373.44 776.228 L
1374.68 776.314 L
1375.92 776.433 L
1377.16 776.539 L
1378.4 776.684 L
1379.64 776.809 L
1380.88 776.978 L
1382.12 777.123 L
1383.36 777.316 L
1384.6 777.479 L
1385.84 777.695 L
1387.08 777.877 L
1388.32 778.096 L
1389.56 778.258 L
1390.8 778.444 L
1392.04 778.58 L
1393.28 778.704 L
1394.52 778.843 L
1395.76 778.942 L
1397 779.029 L
1398.24 779.124 L
1399.48 779.187 L
1400.72 779.252 L
1401.96 779.292 L
1403.2 779.327 L
1404.44 779.343 L
1405.68 779.349 L
1406.92 779.343 L
1408.16 779.326 L
1409.4 779.291 L
1410.64 779.252 L
1411.88 779.189 L
1413.12 779.128 L
1414.36 779.036 L
1415.6 778.953 L
1416.84 778.834 L
1418.08 778.735 L
1419.32 778.647 L
1420.56 778.552 L
1421.8 778.487 L
1423.04 778.421 L
1424.28 778.38 L
1425.52 778.343 L
1426.76 778.325 L
1428 778.318 L
1429.24 778.323 L
1430.48 778.339 L
1431.72 778.373 L
1432.96 778.412 L
1434.2 778.475 L
1435.44 778.536 L
1436.68 778.627 L
1437.92 778.71 L
1439.16 778.804 L
1440.4 778.907 L
1441.64 779.019 L
1442.88 779.173 L
1444.12 779.306 L
1445.36 779.486 L
1446.6 779.64 L
1447.84 779.837 L
1449.08 779.982 L
1450.32 780.116 L
1451.56 780.268 L
1452.8 780.376 L
1454.04 780.473 L
1455.28 780.579 L
1456.52 780.651 L
1457.76 780.712 L
1459 780.774 L
1460.24 780.811 L
1461.48 780.837 L
1462.72 780.855 L
1463.96 780.858 L
1465.2 780.848 L
1466.44 780.828 L
1467.68 780.79 L
1468.92 780.749 L
1470.16 780.683 L
1471.4 780.621 L
1472.64 780.529 L
1473.88 780.446 L
1475.12 780.329 L
1476.36 780.226 L
1477.6 780.115 L
1478.84 779.982 L
1480.08 779.89 L
1481.32 779.79 L
1482.56 779.723 L
1483.8 779.667 L
1485.04 779.614 L
1486.28 779.583 L
1487.52 779.559 L
1488.76 779.552 L
1490 779.555 L
1491.24 779.573 L
1492.48 779.599 L
1493.72 779.635 L
1494.96 779.68 L
1496.2 779.75 L
1497.44 779.817 L
1498.68 779.893 L
1499.92 780 L
1501.16 780.096 L
1502.4 780.229 L
1503.64 780.345 L
1504.88 780.47 L
1506.12 780.603 L
1507.36 780.781 L
1508.6 780.921 L
1509.84 781.048 L
1511.08 781.191 L
1512.32 781.292 L
1513.56 781.382 L
1514.8 781.479 L
1516.04 781.544 L
1517.28 781.597 L
1518.52 781.649 L
1519.76 781.679 L
1521 781.699 L
1522.24 781.708 L
1523.48 781.704 L
1524.72 781.69 L
1525.96 781.658 L
1527.2 781.621 L
1528.44 781.561 L
1529.68 781.502 L
1530.92 781.433 L
1532.16 781.334 L
1533.4 781.244 L
1534.64 781.144 L
1535.88 781.035 L
1537.12 780.885 L
1538.36 780.758 L
1539.6 780.614 L
1540.84 780.511 L
1542.08 780.418 L
1543.32 780.318 L
1544.56 780.249 L
1545.8 780.191 L
1547.04 780.191 L
1548.28 780.191 L
1549.52 780.191 L
S
GR
GS
[0.75 0 0 0.75 0 0.25] CT
0 0.749 0.749 RC
[8 3 2 3] 0 setdash
2 LJ
0.667 LW
N
250 800.593 M
1738 800.593 L
S
GR
GS
[0.75 0 0 0.75 0 0.25] CT
N
1544.3 785.7 M
1544.3 775.3 L
1554.7 775.3 L
1554.7 785.7 L
cp
f
GR
GS
[0.75 0 0 0.75 0 0.25] CT
1 1 0.863 RC
10.0 ML
1.333 LW
N
1544.3 785.7 M
1544.3 775.3 L
1554.7 775.3 L
1554.7 785.7 L
cp
S
GR
GS
[0.75 0 0 0.75 0 0.25] CT
1 GC
N
1639 123 M
1639 88 L
1725 88 L
1725 123 L
cp
f
GR
GS
[0.75 0 0 0.75 1257 73.47826] CT
/Helvetica 12 F
GS
[1 0 0 1 0 0] CT
0 4.5 moveto 
1 -1 scale
(data1) t 
GR
GR
GS
[0.75 0 0 0.75 0 0.25] CT
0 0.447 0.741 RC
1 LJ
0.667 LW
N
1643 97.638 M
1673 97.638 L
S
GR
GS
[0.75 0 0 0.75 1257 85.27174] CT
/Helvetica 12 F
GS
[1 0 0 1 0 0] CT
0 4.5 moveto 
1 -1 scale
(   y min) t 
GR
GR
GS
[0.75 0 0 0.75 0 0.25] CT
0 0.749 0.749 RC
[8 3 2 3] 0 setdash
2 LJ
0.667 LW
N
1643 113.362 M
1673 113.362 L
S
GR
GS
[0.75 0 0 0.75 0 0.25] CT
0.149 GC
10.0 ML
0.667 LW
N
1639 123 M
1639 88 L
1725 88 L
1725 123 L
cp
S
GR
GS
[0.75 0 0 0.75 0 0.25] CT
1 1 0.933 RC
N
1556.187 773.524 M
1631.187 773.524 L
1631.187 731.524 L
1556.187 731.524 L
cp
f
GR
GS
[0.75 0 0 0.75 0 0.25] CT
0.8 GC
10.0 ML
0.667 LW
N
1556.187 773.524 M
1631.187 773.524 L
1631.187 731.524 L
1556.187 731.524 L
cp
S
GR
GS
[0.75 0 0 0.75 1170.14008 577.39317] CT
/Helvetica 13.333 F
GS
[1 0 0 1 0 0] CT
0 -21 moveto 
1 -1 scale
(X: 1048) t 
GR
GR
GS
[0.75 0 0 0.75 1170.14008 577.39317] CT
/Helvetica 13.333 F
GS
[1 0 0 1 0 0] CT
0 -4 moveto 
1 -1 scale
(Y: -0.1996) t 
GR
GR
GS
[0.75 0 0 0.75 0 0.25] CT
0.608 GC
N
1544.82 785.18 M
1544.82 775.82 L
1554.18 775.82 L
1554.18 785.18 L
cp
f
GR
GS
[0.75 0 0 0.75 0 0.25] CT
1 1 0.946 RC
10.0 ML
1.333 LW
N
1544.3 785.7 M
1544.3 775.3 L
1554.7 775.3 L
1554.7 785.7 L
cp
S
GR
%%Trailer
%%Pages: 1
%%EOF
