%!PS-Adobe-3.0 EPSF-3.0
%%Creator: (MATLAB, The Mathworks, Inc. Version 9.0.0.341360 \(R2016a\). Operating System: Linux)
%%Title: /mnt/ntfs-hd/Users/Sidney/Documents/Courses/PhD/code/topology_control_ardrone/uav_sim/pc.eps
%%CreationDate: 2017-02-13T11:20:07
%%Pages: (atend)
%%BoundingBox: 0 0 1440 751
%%LanguageLevel: 3
%%EndComments
%%BeginProlog
%%BeginResource: procset (Apache XML Graphics Std ProcSet) 1.2 0
%%Version: 1.2 0
%%Copyright: (Copyright 2001-2003,2010 The Apache Software Foundation. License terms: http://www.apache.org/licenses/LICENSE-2.0)
/bd{bind def}bind def
/ld{load def}bd
/GR/grestore ld
/M/moveto ld
/LJ/setlinejoin ld
/C/curveto ld
/f/fill ld
/LW/setlinewidth ld
/GC/setgray ld
/t/show ld
/N/newpath ld
/CT/concat ld
/cp/closepath ld
/S/stroke ld
/L/lineto ld
/CC/setcmykcolor ld
/A/ashow ld
/GS/gsave ld
/RC/setrgbcolor ld
/RM/rmoveto ld
/ML/setmiterlimit ld
/re {4 2 roll M
1 index 0 rlineto
0 exch rlineto
neg 0 rlineto
cp } bd
/_ctm matrix def
/_tm matrix def
/BT { _ctm currentmatrix pop matrix _tm copy pop 0 0 moveto } bd
/ET { _ctm setmatrix } bd
/iTm { _ctm setmatrix _tm concat } bd
/Tm { _tm astore pop iTm 0 0 moveto } bd
/ux 0.0 def
/uy 0.0 def
/F {
  /Tp exch def
  /Tf exch def
  Tf findfont Tp scalefont setfont
  /cf Tf def  /cs Tp def
} bd
/ULS {currentpoint /uy exch def /ux exch def} bd
/ULE {
  /Tcx currentpoint pop def
  gsave
  newpath
  cf findfont cs scalefont dup
  /FontMatrix get 0 get /Ts exch def /FontInfo get dup
  /UnderlinePosition get Ts mul /To exch def
  /UnderlineThickness get Ts mul /Tt exch def
  ux uy To add moveto  Tcx uy To add lineto
  Tt setlinewidth stroke
  grestore
} bd
/OLE {
  /Tcx currentpoint pop def
  gsave
  newpath
  cf findfont cs scalefont dup
  /FontMatrix get 0 get /Ts exch def /FontInfo get dup
  /UnderlinePosition get Ts mul /To exch def
  /UnderlineThickness get Ts mul /Tt exch def
  ux uy To add cs add moveto Tcx uy To add cs add lineto
  Tt setlinewidth stroke
  grestore
} bd
/SOE {
  /Tcx currentpoint pop def
  gsave
  newpath
  cf findfont cs scalefont dup
  /FontMatrix get 0 get /Ts exch def /FontInfo get dup
  /UnderlinePosition get Ts mul /To exch def
  /UnderlineThickness get Ts mul /Tt exch def
  ux uy To add cs 10 mul 26 idiv add moveto Tcx uy To add cs 10 mul 26 idiv add lineto
  Tt setlinewidth stroke
  grestore
} bd
/QT {
/Y22 exch store
/X22 exch store
/Y21 exch store
/X21 exch store
currentpoint
/Y21 load 2 mul add 3 div exch
/X21 load 2 mul add 3 div exch
/X21 load 2 mul /X22 load add 3 div
/Y21 load 2 mul /Y22 load add 3 div
/X22 load /Y22 load curveto
} bd
/SSPD {
dup length /d exch dict def
{
/v exch def
/k exch def
currentpagedevice k known {
/cpdv currentpagedevice k get def
v cpdv ne {
/upd false def
/nullv v type /nulltype eq def
/nullcpdv cpdv type /nulltype eq def
nullv nullcpdv or
{
/upd true def
} {
/sametype v type cpdv type eq def
sametype {
v type /arraytype eq {
/vlen v length def
/cpdvlen cpdv length def
vlen cpdvlen eq {
0 1 vlen 1 sub {
/i exch def
/obj v i get def
/cpdobj cpdv i get def
obj cpdobj ne {
/upd true def
exit
} if
} for
} {
/upd true def
} ifelse
} {
v type /dicttype eq {
v {
/dv exch def
/dk exch def
/cpddv cpdv dk get def
dv cpddv ne {
/upd true def
exit
} if
} forall
} {
/upd true def
} ifelse
} ifelse
} if
} ifelse
upd true eq {
d k v put
} if
} if
} if
} forall
d length 0 gt {
d setpagedevice
} if
} bd
%%EndResource
%%BeginResource: procset (Apache XML Graphics EPS ProcSet) 1.0 0
%%Version: 1.0 0
%%Copyright: (Copyright 2002-2003 The Apache Software Foundation. License terms: http://www.apache.org/licenses/LICENSE-2.0)
/BeginEPSF { %def
/b4_Inc_state save def         % Save state for cleanup
/dict_count countdictstack def % Count objects on dict stack
/op_count count 1 sub def      % Count objects on operand stack
userdict begin                 % Push userdict on dict stack
/showpage { } def              % Redefine showpage, { } = null proc
0 setgray 0 setlinecap         % Prepare graphics state
1 setlinewidth 0 setlinejoin
10 setmiterlimit [ ] 0 setdash newpath
/languagelevel where           % If level not equal to 1 then
{pop languagelevel             % set strokeadjust and
1 ne                           % overprint to their defaults.
{false setstrokeadjust false setoverprint
} if
} if
} bd
/EndEPSF { %def
count op_count sub {pop} repeat            % Clean up stacks
countdictstack dict_count sub {end} repeat
b4_Inc_state restore
} bd
%%EndResource
%FOPBeginFontDict
%%IncludeResource: font Courier-Bold
%%IncludeResource: font Helvetica
%%IncludeResource: font Courier-BoldOblique
%%IncludeResource: font Courier-Oblique
%%IncludeResource: font Times-Roman
%%IncludeResource: font Helvetica-BoldOblique
%%IncludeResource: font Helvetica-Bold
%%IncludeResource: font Helvetica-Oblique
%%IncludeResource: font Times-BoldItalic
%%IncludeResource: font Courier
%%IncludeResource: font Times-Italic
%%IncludeResource: font Times-Bold
%%IncludeResource: font Symbol
%%IncludeResource: font ZapfDingbats
%FOPEndFontDict
%%BeginResource: encoding WinAnsiEncoding
/WinAnsiEncoding [
/.notdef /.notdef /.notdef /.notdef /.notdef
/.notdef /.notdef /.notdef /.notdef /.notdef
/.notdef /.notdef /.notdef /.notdef /.notdef
/.notdef /.notdef /.notdef /.notdef /.notdef
/.notdef /.notdef /.notdef /.notdef /.notdef
/.notdef /.notdef /.notdef /.notdef /.notdef
/.notdef /.notdef /space /exclam /quotedbl
/numbersign /dollar /percent /ampersand /quotesingle
/parenleft /parenright /asterisk /plus /comma
/hyphen /period /slash /zero /one
/two /three /four /five /six
/seven /eight /nine /colon /semicolon
/less /equal /greater /question /at
/A /B /C /D /E
/F /G /H /I /J
/K /L /M /N /O
/P /Q /R /S /T
/U /V /W /X /Y
/Z /bracketleft /backslash /bracketright /asciicircum
/underscore /quoteleft /a /b /c
/d /e /f /g /h
/i /j /k /l /m
/n /o /p /q /r
/s /t /u /v /w
/x /y /z /braceleft /bar
/braceright /asciitilde /bullet /Euro /bullet
/quotesinglbase /florin /quotedblbase /ellipsis /dagger
/daggerdbl /circumflex /perthousand /Scaron /guilsinglleft
/OE /bullet /Zcaron /bullet /bullet
/quoteleft /quoteright /quotedblleft /quotedblright /bullet
/endash /emdash /asciitilde /trademark /scaron
/guilsinglright /oe /bullet /zcaron /Ydieresis
/space /exclamdown /cent /sterling /currency
/yen /brokenbar /section /dieresis /copyright
/ordfeminine /guillemotleft /logicalnot /sfthyphen /registered
/macron /degree /plusminus /twosuperior /threesuperior
/acute /mu /paragraph /middot /cedilla
/onesuperior /ordmasculine /guillemotright /onequarter /onehalf
/threequarters /questiondown /Agrave /Aacute /Acircumflex
/Atilde /Adieresis /Aring /AE /Ccedilla
/Egrave /Eacute /Ecircumflex /Edieresis /Igrave
/Iacute /Icircumflex /Idieresis /Eth /Ntilde
/Ograve /Oacute /Ocircumflex /Otilde /Odieresis
/multiply /Oslash /Ugrave /Uacute /Ucircumflex
/Udieresis /Yacute /Thorn /germandbls /agrave
/aacute /acircumflex /atilde /adieresis /aring
/ae /ccedilla /egrave /eacute /ecircumflex
/edieresis /igrave /iacute /icircumflex /idieresis
/eth /ntilde /ograve /oacute /ocircumflex
/otilde /odieresis /divide /oslash /ugrave
/uacute /ucircumflex /udieresis /yacute /thorn
/ydieresis
] def
%%EndResource
%FOPBeginFontReencode
/Courier-Bold findfont
dup length dict begin
  {1 index /FID ne {def} {pop pop} ifelse} forall
  /Encoding WinAnsiEncoding def
  currentdict
end
/Courier-Bold exch definefont pop
/Helvetica findfont
dup length dict begin
  {1 index /FID ne {def} {pop pop} ifelse} forall
  /Encoding WinAnsiEncoding def
  currentdict
end
/Helvetica exch definefont pop
/Courier-BoldOblique findfont
dup length dict begin
  {1 index /FID ne {def} {pop pop} ifelse} forall
  /Encoding WinAnsiEncoding def
  currentdict
end
/Courier-BoldOblique exch definefont pop
/Courier-Oblique findfont
dup length dict begin
  {1 index /FID ne {def} {pop pop} ifelse} forall
  /Encoding WinAnsiEncoding def
  currentdict
end
/Courier-Oblique exch definefont pop
/Times-Roman findfont
dup length dict begin
  {1 index /FID ne {def} {pop pop} ifelse} forall
  /Encoding WinAnsiEncoding def
  currentdict
end
/Times-Roman exch definefont pop
/Helvetica-BoldOblique findfont
dup length dict begin
  {1 index /FID ne {def} {pop pop} ifelse} forall
  /Encoding WinAnsiEncoding def
  currentdict
end
/Helvetica-BoldOblique exch definefont pop
/Helvetica-Bold findfont
dup length dict begin
  {1 index /FID ne {def} {pop pop} ifelse} forall
  /Encoding WinAnsiEncoding def
  currentdict
end
/Helvetica-Bold exch definefont pop
/Helvetica-Oblique findfont
dup length dict begin
  {1 index /FID ne {def} {pop pop} ifelse} forall
  /Encoding WinAnsiEncoding def
  currentdict
end
/Helvetica-Oblique exch definefont pop
/Times-BoldItalic findfont
dup length dict begin
  {1 index /FID ne {def} {pop pop} ifelse} forall
  /Encoding WinAnsiEncoding def
  currentdict
end
/Times-BoldItalic exch definefont pop
/Courier findfont
dup length dict begin
  {1 index /FID ne {def} {pop pop} ifelse} forall
  /Encoding WinAnsiEncoding def
  currentdict
end
/Courier exch definefont pop
/Times-Italic findfont
dup length dict begin
  {1 index /FID ne {def} {pop pop} ifelse} forall
  /Encoding WinAnsiEncoding def
  currentdict
end
/Times-Italic exch definefont pop
/Times-Bold findfont
dup length dict begin
  {1 index /FID ne {def} {pop pop} ifelse} forall
  /Encoding WinAnsiEncoding def
  currentdict
end
/Times-Bold exch definefont pop
%FOPEndFontReencode
%%EndProlog
%%Page: 1 1
%%PageBoundingBox: 0 0 1440 751
%%BeginPageSetup
[1 0 0 -1 0 751] CT
%%EndPageSetup
GS
[0.75 0 0 0.75 0 0.25] CT
N
0 0 M
1920 0 L
1920 1001 L
0 1001 L
0 0 L
cp
clip
1 GC
N
0 0 1920 1001 re
f
GR
GS
[0.75 0 0 0.75 0 0.25] CT
1 GC
N
0 0 1920 1001 re
f
GR
GS
[0.75 0 0 0.75 0 0.25] CT
1 GC
N
250 891 M
1738 891 L
1738 75 L
250 75 L
cp
f
GR
GS
[0.75 0 0 0.75 0 0.25] CT
0.149 GC
2 setlinecap
1 LJ
0.667 LW
N
250 891 M
1738 891 L
S
GR
GS
[0.75 0 0 0.75 0 0.25] CT
0.149 GC
2 setlinecap
1 LJ
0.667 LW
N
250 75 M
1738 75 L
S
GR
GS
[0.75 0 0 0.75 0 0.25] CT
0.149 GC
2 setlinecap
1 LJ
0.667 LW
N
250 891 M
250 876.12 L
S
GR
GS
[0.75 0 0 0.75 0 0.25] CT
0.149 GC
2 setlinecap
1 LJ
0.667 LW
N
462.571 891 M
462.571 876.12 L
S
GR
GS
[0.75 0 0 0.75 0 0.25] CT
0.149 GC
2 setlinecap
1 LJ
0.667 LW
N
675.143 891 M
675.143 876.12 L
S
GR
GS
[0.75 0 0 0.75 0 0.25] CT
0.149 GC
2 setlinecap
1 LJ
0.667 LW
N
887.714 891 M
887.714 876.12 L
S
GR
GS
[0.75 0 0 0.75 0 0.25] CT
0.149 GC
2 setlinecap
1 LJ
0.667 LW
N
1100.286 891 M
1100.286 876.12 L
S
GR
GS
[0.75 0 0 0.75 0 0.25] CT
0.149 GC
2 setlinecap
1 LJ
0.667 LW
N
1312.857 891 M
1312.857 876.12 L
S
GR
GS
[0.75 0 0 0.75 0 0.25] CT
0.149 GC
2 setlinecap
1 LJ
0.667 LW
N
1525.429 891 M
1525.429 876.12 L
S
GR
GS
[0.75 0 0 0.75 0 0.25] CT
0.149 GC
2 setlinecap
1 LJ
0.667 LW
N
1738 891 M
1738 876.12 L
S
GR
GS
[0.75 0 0 0.75 0 0.25] CT
0.149 GC
2 setlinecap
1 LJ
0.667 LW
N
250 75 M
250 89.88 L
S
GR
GS
[0.75 0 0 0.75 0 0.25] CT
0.149 GC
2 setlinecap
1 LJ
0.667 LW
N
462.571 75 M
462.571 89.88 L
S
GR
GS
[0.75 0 0 0.75 0 0.25] CT
0.149 GC
2 setlinecap
1 LJ
0.667 LW
N
675.143 75 M
675.143 89.88 L
S
GR
GS
[0.75 0 0 0.75 0 0.25] CT
0.149 GC
2 setlinecap
1 LJ
0.667 LW
N
887.714 75 M
887.714 89.88 L
S
GR
GS
[0.75 0 0 0.75 0 0.25] CT
0.149 GC
2 setlinecap
1 LJ
0.667 LW
N
1100.286 75 M
1100.286 89.88 L
S
GR
GS
[0.75 0 0 0.75 0 0.25] CT
0.149 GC
2 setlinecap
1 LJ
0.667 LW
N
1312.857 75 M
1312.857 89.88 L
S
GR
GS
[0.75 0 0 0.75 0 0.25] CT
0.149 GC
2 setlinecap
1 LJ
0.667 LW
N
1525.429 75 M
1525.429 89.88 L
S
GR
GS
[0.75 0 0 0.75 0 0.25] CT
0.149 GC
2 setlinecap
1 LJ
0.667 LW
N
1738 75 M
1738 89.88 L
S
GR
GS
[0.75 0 0 0.75 187.5 672.49998] CT
0.149 GC
/Helvetica 13.333 F
GS
[1 0 0 1 0 0] CT
-4.5 13 moveto 
1 -1 scale
(0) t 
GR
GR
GS
[0.75 0 0 0.75 346.92858 672.49998] CT
0.149 GC
/Helvetica 13.333 F
GS
[1 0 0 1 0 0] CT
-12.5 13 moveto 
1 -1 scale
(200) t 
GR
GR
GS
[0.75 0 0 0.75 506.35716 672.49998] CT
0.149 GC
/Helvetica 13.333 F
GS
[1 0 0 1 0 0] CT
-12.5 13 moveto 
1 -1 scale
(400) t 
GR
GR
GS
[0.75 0 0 0.75 665.78572 672.49998] CT
0.149 GC
/Helvetica 13.333 F
GS
[1 0 0 1 0 0] CT
-12.5 13 moveto 
1 -1 scale
(600) t 
GR
GR
GS
[0.75 0 0 0.75 825.21432 672.49998] CT
0.149 GC
/Helvetica 13.333 F
GS
[1 0 0 1 0 0] CT
-12.5 13 moveto 
1 -1 scale
(800) t 
GR
GR
GS
[0.75 0 0 0.75 984.64288 672.49998] CT
0.149 GC
/Helvetica 13.333 F
GS
[1 0 0 1 0 0] CT
-17 13 moveto 
1 -1 scale
(1000) t 
GR
GR
GS
[0.75 0 0 0.75 1144.07144 672.49998] CT
0.149 GC
/Helvetica 13.333 F
GS
[1 0 0 1 0 0] CT
-17 13 moveto 
1 -1 scale
(1200) t 
GR
GR
GS
[0.75 0 0 0.75 1303.5 672.49998] CT
0.149 GC
/Helvetica 13.333 F
GS
[1 0 0 1 0 0] CT
-17 13 moveto 
1 -1 scale
(1400) t 
GR
GR
GS
[0.75 0 0 0.75 0 0.25] CT
0.149 GC
2 setlinecap
1 LJ
0.667 LW
N
250 891 M
250 75 L
S
GR
GS
[0.75 0 0 0.75 0 0.25] CT
0.149 GC
2 setlinecap
1 LJ
0.667 LW
N
1738 891 M
1738 75 L
S
GR
GS
[0.75 0 0 0.75 0 0.25] CT
0.149 GC
2 setlinecap
1 LJ
0.667 LW
N
250 891 M
264.88 891 L
S
GR
GS
[0.75 0 0 0.75 0 0.25] CT
0.149 GC
2 setlinecap
1 LJ
0.667 LW
N
250 774.429 M
264.88 774.429 L
S
GR
GS
[0.75 0 0 0.75 0 0.25] CT
0.149 GC
2 setlinecap
1 LJ
0.667 LW
N
250 657.857 M
264.88 657.857 L
S
GR
GS
[0.75 0 0 0.75 0 0.25] CT
0.149 GC
2 setlinecap
1 LJ
0.667 LW
N
250 541.286 M
264.88 541.286 L
S
GR
GS
[0.75 0 0 0.75 0 0.25] CT
0.149 GC
2 setlinecap
1 LJ
0.667 LW
N
250 424.714 M
264.88 424.714 L
S
GR
GS
[0.75 0 0 0.75 0 0.25] CT
0.149 GC
2 setlinecap
1 LJ
0.667 LW
N
250 308.143 M
264.88 308.143 L
S
GR
GS
[0.75 0 0 0.75 0 0.25] CT
0.149 GC
2 setlinecap
1 LJ
0.667 LW
N
250 191.571 M
264.88 191.571 L
S
GR
GS
[0.75 0 0 0.75 0 0.25] CT
0.149 GC
2 setlinecap
1 LJ
0.667 LW
N
250 75 M
264.88 75 L
S
GR
GS
[0.75 0 0 0.75 0 0.25] CT
0.149 GC
2 setlinecap
1 LJ
0.667 LW
N
1738 891 M
1723.12 891 L
S
GR
GS
[0.75 0 0 0.75 0 0.25] CT
0.149 GC
2 setlinecap
1 LJ
0.667 LW
N
1738 774.429 M
1723.12 774.429 L
S
GR
GS
[0.75 0 0 0.75 0 0.25] CT
0.149 GC
2 setlinecap
1 LJ
0.667 LW
N
1738 657.857 M
1723.12 657.857 L
S
GR
GS
[0.75 0 0 0.75 0 0.25] CT
0.149 GC
2 setlinecap
1 LJ
0.667 LW
N
1738 541.286 M
1723.12 541.286 L
S
GR
GS
[0.75 0 0 0.75 0 0.25] CT
0.149 GC
2 setlinecap
1 LJ
0.667 LW
N
1738 424.714 M
1723.12 424.714 L
S
GR
GS
[0.75 0 0 0.75 0 0.25] CT
0.149 GC
2 setlinecap
1 LJ
0.667 LW
N
1738 308.143 M
1723.12 308.143 L
S
GR
GS
[0.75 0 0 0.75 0 0.25] CT
0.149 GC
2 setlinecap
1 LJ
0.667 LW
N
1738 191.571 M
1723.12 191.571 L
S
GR
GS
[0.75 0 0 0.75 0 0.25] CT
0.149 GC
2 setlinecap
1 LJ
0.667 LW
N
1738 75 M
1723.12 75 L
S
GR
GS
[0.75 0 0 0.75 183.5 668.5] CT
0.149 GC
/Helvetica 13.333 F
GS
[1 0 0 1 0 0] CT
-13 4.5 moveto 
1 -1 scale
(-5) t 
GR
GR
GS
[0.75 0 0 0.75 183.5 581.07144] CT
0.149 GC
/Helvetica 13.333 F
GS
[1 0 0 1 0 0] CT
-9 4.5 moveto 
1 -1 scale
(0) t 
GR
GR
GS
[0.75 0 0 0.75 183.5 493.64284] CT
0.149 GC
/Helvetica 13.333 F
GS
[1 0 0 1 0 0] CT
-9 4.5 moveto 
1 -1 scale
(5) t 
GR
GR
GS
[0.75 0 0 0.75 183.5 406.21428] CT
0.149 GC
/Helvetica 13.333 F
GS
[1 0 0 1 0 0] CT
-17 4.5 moveto 
1 -1 scale
(10) t 
GR
GR
GS
[0.75 0 0 0.75 183.5 318.78572] CT
0.149 GC
/Helvetica 13.333 F
GS
[1 0 0 1 0 0] CT
-17 4.5 moveto 
1 -1 scale
(15) t 
GR
GR
GS
[0.75 0 0 0.75 183.5 231.35714] CT
0.149 GC
/Helvetica 13.333 F
GS
[1 0 0 1 0 0] CT
-17 4.5 moveto 
1 -1 scale
(20) t 
GR
GR
GS
[0.75 0 0 0.75 183.5 143.92857] CT
0.149 GC
/Helvetica 13.333 F
GS
[1 0 0 1 0 0] CT
-17 4.5 moveto 
1 -1 scale
(25) t 
GR
GR
GS
[0.75 0 0 0.75 183.5 56.5] CT
0.149 GC
/Helvetica 13.333 F
GS
[1 0 0 1 0 0] CT
-17 4.5 moveto 
1 -1 scale
(30) t 
GR
GR
GS
[0.75 0 0 0.75 0 0.25] CT
0 0.447 0.741 RC
1 LJ
0.667 LW
N
251.063 75 M
252.126 75 L
253.189 75 L
254.251 75 L
255.314 75 L
256.377 75 L
257.44 75 L
258.503 75 L
259.566 75 L
260.629 75 L
261.691 75 L
262.754 75 L
263.817 75 L
264.88 75 L
265.943 75 L
267.006 75 L
268.069 75 L
269.131 75 L
270.194 75 L
271.257 75 L
272.32 75 L
273.383 75 L
274.446 75 L
275.509 75 L
276.571 75 L
277.634 75 L
278.697 75 L
279.76 75 L
280.823 75 L
281.886 75 L
282.949 75 L
284.011 75 L
285.074 75 L
286.137 76.213 L
287.2 78.728 L
288.263 83.278 L
289.326 89.122 L
290.389 94.701 L
291.451 101.972 L
292.514 109.653 L
293.577 117.588 L
294.64 125.678 L
295.703 133.836 L
296.766 141.572 L
297.829 148.968 L
298.891 156.221 L
299.954 163.436 L
301.017 170.668 L
302.08 177.943 L
303.143 184.047 L
304.206 191.421 L
305.269 198.516 L
306.331 204.658 L
307.394 210.056 L
308.457 214.87 L
309.52 219.217 L
310.583 222.543 L
311.646 226.234 L
312.709 229.644 L
313.771 232.3 L
314.834 235.294 L
315.897 238.53 L
316.96 242.545 L
318.023 247.218 L
319.086 251.529 L
320.149 257.108 L
321.211 263.039 L
322.274 268.192 L
323.337 274.572 L
324.4 281.115 L
325.463 287.778 L
326.526 294.469 L
327.589 300.042 L
328.651 306.728 L
329.714 313.41 L
330.777 320.088 L
331.84 326.763 L
332.903 333.434 L
333.966 340.101 L
335.029 346.765 L
336.091 352.309 L
337.154 358.893 L
338.217 365.413 L
339.28 371.883 L
340.343 378.316 L
341.406 384.721 L
342.469 391.104 L
343.531 396.409 L
344.594 402.764 L
345.657 409.078 L
346.72 415.291 L
347.783 420.408 L
348.846 426.491 L
349.909 432.527 L
350.971 437.527 L
352.034 443.501 L
353.097 449.451 L
354.16 454.396 L
355.223 460.316 L
356.286 466.163 L
357.349 471.912 L
358.411 476.645 L
359.474 482.269 L
360.537 487.845 L
361.6 493.385 L
362.663 497.98 L
363.726 503.472 L
364.789 508.946 L
365.851 514.402 L
366.914 519.774 L
367.977 525.053 L
369.04 530.259 L
370.103 534.551 L
371.166 539.659 L
372.229 544.728 L
373.291 549.767 L
374.354 554.78 L
375.417 558.943 L
376.48 563.837 L
377.543 568.987 L
378.606 572.334 L
379.669 576.046 L
380.731 579.475 L
381.794 582.662 L
382.857 585.637 L
383.92 588.429 L
384.983 591.057 L
386.046 593.136 L
387.109 595.669 L
388.171 598.438 L
389.234 601.416 L
390.297 604.576 L
391.36 607.896 L
392.423 611.353 L
393.486 614.325 L
394.549 617.984 L
395.611 621.7 L
396.674 625.188 L
397.737 628.425 L
398.8 630.955 L
399.863 633.814 L
400.926 636.502 L
401.989 639.038 L
403.051 641.439 L
404.114 643.347 L
405.177 645.583 L
406.24 647.972 L
407.303 650.522 L
408.366 653.215 L
409.429 655.557 L
410.491 658.472 L
411.554 661.487 L
412.617 664.591 L
413.68 667.771 L
414.743 670.984 L
415.806 674.202 L
416.869 676.888 L
417.931 680.115 L
418.994 683.345 L
420.057 686.579 L
421.12 689.815 L
422.183 693.053 L
423.246 695.75 L
424.309 698.96 L
425.371 702.14 L
426.434 705.294 L
427.497 708.426 L
428.56 711.021 L
429.623 714.12 L
430.686 717.203 L
431.749 720.274 L
432.811 722.824 L
433.874 725.865 L
434.937 728.85 L
436 731.78 L
437.063 734.663 L
438.126 737.033 L
439.189 739.844 L
440.251 742.621 L
441.314 745.368 L
442.377 748.09 L
443.44 750.77 L
444.503 752.965 L
445.566 755.558 L
446.629 758.11 L
447.691 760.627 L
448.754 762.7 L
449.817 765.16 L
450.88 767.595 L
451.943 770.006 L
453.006 772.395 L
454.069 774.348 L
455.131 776.639 L
456.194 778.878 L
457.257 781.07 L
458.32 783.22 L
459.383 784.982 L
460.446 787.064 L
461.509 789.114 L
462.571 791.135 L
463.634 793.124 L
464.697 794.726 L
465.76 796.576 L
466.823 798.354 L
467.886 800.065 L
468.949 801.443 L
470.011 803.044 L
471.074 804.59 L
472.137 806.085 L
473.2 807.295 L
474.263 808.704 L
475.326 810.048 L
476.389 811.33 L
477.451 812.351 L
478.514 813.524 L
479.577 814.642 L
480.64 815.708 L
481.703 816.557 L
482.766 817.534 L
483.829 818.464 L
484.891 819.342 L
485.954 820.021 L
487.017 820.773 L
488.08 821.46 L
489.143 822.084 L
490.206 822.556 L
491.269 823.066 L
492.331 823.518 L
493.394 823.849 L
494.457 824.195 L
495.52 824.433 L
496.583 824.648 L
497.646 824.786 L
498.709 824.848 L
499.771 824.842 L
500.834 824.765 L
501.897 824.612 L
502.96 824.385 L
504.023 824.138 L
505.086 823.776 L
506.149 823.333 L
507.211 822.9 L
508.274 822.306 L
509.337 821.631 L
510.4 821.01 L
511.463 820.194 L
512.526 819.306 L
513.589 818.346 L
514.651 817.495 L
515.714 816.414 L
516.777 815.272 L
517.84 814.071 L
518.903 813.029 L
519.966 811.731 L
521.029 810.382 L
522.091 809.223 L
523.154 807.791 L
524.217 806.317 L
525.28 804.803 L
526.343 803.517 L
527.406 802.002 L
528.469 800.534 L
529.531 799.113 L
530.594 797.96 L
531.657 796.614 L
532.72 795.522 L
533.783 794.244 L
534.846 793.001 L
535.909 791.79 L
536.971 790.799 L
538.034 789.589 L
539.097 788.35 L
540.16 787.296 L
541.223 786.008 L
542.286 784.915 L
543.349 783.583 L
544.411 782.229 L
545.474 781.085 L
546.537 779.695 L
547.6 778.29 L
548.663 777.118 L
549.726 775.714 L
550.789 774.544 L
551.851 773.141 L
552.914 771.739 L
553.977 770.572 L
555.04 769.173 L
556.103 767.775 L
557.166 766.611 L
558.229 765.228 L
559.291 763.886 L
560.354 762.799 L
561.417 761.528 L
562.48 760.497 L
563.543 759.292 L
564.606 758.118 L
565.669 757.164 L
566.731 756.045 L
567.794 755.135 L
568.857 754.066 L
569.92 753.023 L
570.983 752.171 L
572.046 751.17 L
573.109 750.192 L
574.171 749.393 L
575.234 748.453 L
576.297 747.685 L
577.36 746.781 L
578.423 746.042 L
579.486 745.187 L
580.549 744.507 L
581.611 743.729 L
582.674 742.991 L
583.737 742.405 L
584.8 741.736 L
585.863 741.206 L
586.926 740.602 L
587.989 740.126 L
589.051 739.585 L
590.114 739.174 L
591.177 738.733 L
592.24 738.349 L
593.303 738.071 L
594.366 737.788 L
595.429 737.594 L
596.491 737.409 L
597.554 737.296 L
598.617 737.208 L
599.68 737.174 L
600.743 737.196 L
601.806 737.281 L
602.869 737.403 L
603.931 737.607 L
604.994 737.875 L
606.057 738.147 L
607.12 738.529 L
608.183 738.895 L
609.246 739.389 L
610.309 739.943 L
611.371 740.449 L
612.434 741.108 L
613.497 741.701 L
614.56 742.461 L
615.623 743.136 L
616.686 743.992 L
617.749 744.743 L
618.811 745.689 L
619.874 746.512 L
620.937 747.54 L
622 748.427 L
623.063 749.526 L
624.126 750.471 L
625.189 751.637 L
626.251 752.836 L
627.314 753.86 L
628.377 755.117 L
629.44 756.187 L
630.503 757.495 L
631.566 758.603 L
632.629 759.949 L
633.691 761.084 L
634.754 762.461 L
635.817 763.621 L
636.88 765.026 L
637.943 766.208 L
639.006 767.638 L
640.069 768.839 L
641.131 770.292 L
642.194 771.504 L
643.257 772.715 L
644.32 774.167 L
645.383 775.375 L
646.446 776.824 L
647.509 778.03 L
648.571 779.476 L
649.634 780.68 L
650.697 782.123 L
651.76 783.324 L
652.823 784.733 L
653.886 785.875 L
654.949 787.209 L
656.011 788.291 L
657.074 789.557 L
658.137 790.585 L
659.2 791.789 L
660.263 792.768 L
661.326 793.915 L
662.389 794.848 L
663.451 795.762 L
664.514 796.834 L
665.577 797.708 L
666.64 798.732 L
667.703 799.568 L
668.766 800.548 L
669.829 801.348 L
670.891 802.287 L
671.954 803.053 L
673.017 803.799 L
674.08 804.651 L
675.143 805.325 L
676.206 806.091 L
677.269 806.696 L
678.331 807.382 L
679.394 807.921 L
680.457 808.431 L
681.52 809.006 L
682.583 809.455 L
683.646 809.956 L
684.709 810.338 L
685.771 810.689 L
686.834 811.068 L
687.897 811.351 L
688.96 811.65 L
690.023 811.867 L
691.086 812.055 L
692.149 812.242 L
693.211 812.368 L
694.274 812.473 L
695.337 812.513 L
696.4 812.513 L
697.463 812.458 L
698.526 812.367 L
699.589 812.206 L
700.651 812.029 L
701.714 811.765 L
702.777 811.503 L
703.84 811.139 L
704.903 810.79 L
705.966 810.315 L
707.029 809.872 L
708.091 809.389 L
709.154 808.755 L
710.217 808.184 L
711.28 807.449 L
712.343 806.794 L
713.406 806.104 L
714.469 805.23 L
715.531 804.466 L
716.594 803.673 L
717.657 802.683 L
718.72 801.827 L
719.783 800.764 L
720.846 799.849 L
721.909 798.91 L
722.971 797.751 L
724.034 796.76 L
725.097 795.748 L
726.16 794.511 L
727.223 793.464 L
728.286 792.403 L
729.349 791.11 L
730.411 790.018 L
731.474 788.913 L
732.537 787.57 L
733.6 786.438 L
734.663 785.295 L
735.726 783.91 L
736.789 782.753 L
737.851 781.594 L
738.914 780.201 L
739.977 779.038 L
741.04 777.873 L
742.103 776.706 L
743.166 775.305 L
744.229 774.135 L
745.291 772.964 L
746.354 771.56 L
747.417 770.397 L
748.48 769.242 L
749.543 768.093 L
750.606 766.722 L
751.669 765.587 L
752.731 764.457 L
753.794 763.333 L
754.857 761.992 L
755.92 760.881 L
756.983 759.788 L
758.046 758.721 L
759.109 757.476 L
760.171 756.464 L
761.234 755.477 L
762.297 754.512 L
763.36 753.569 L
764.423 752.647 L
765.486 751.746 L
766.549 750.864 L
767.611 749.832 L
768.674 748.992 L
769.737 748.17 L
770.8 747.366 L
771.863 746.422 L
772.926 745.654 L
773.989 744.902 L
775.051 744.165 L
776.114 743.3 L
777.177 742.596 L
778.24 741.907 L
779.303 741.256 L
780.366 740.533 L
781.429 739.979 L
782.491 739.466 L
783.554 738.993 L
784.617 738.479 L
785.68 738.093 L
786.743 737.745 L
787.806 737.434 L
788.869 737.11 L
789.931 736.892 L
790.994 736.723 L
792.057 736.603 L
793.12 736.521 L
794.183 736.505 L
795.246 736.536 L
796.309 736.612 L
797.371 736.764 L
798.434 736.94 L
799.497 737.16 L
800.56 737.426 L
801.623 737.738 L
802.686 738.17 L
803.749 738.578 L
804.811 739.029 L
805.874 739.522 L
806.937 740.056 L
808 740.75 L
809.063 741.372 L
810.126 742.03 L
811.189 742.723 L
812.251 743.599 L
813.314 744.364 L
814.377 745.161 L
815.44 746.156 L
816.503 747.018 L
817.566 747.907 L
818.629 748.824 L
819.691 749.766 L
820.754 750.73 L
821.817 751.906 L
822.88 752.901 L
823.943 753.911 L
825.006 754.933 L
826.069 755.968 L
827.131 757.015 L
828.194 758.287 L
829.257 759.358 L
830.32 760.441 L
831.383 761.526 L
832.446 762.611 L
833.509 763.694 L
834.571 764.992 L
835.634 766.074 L
836.697 767.154 L
837.76 768.234 L
838.823 769.313 L
839.886 770.392 L
840.949 771.471 L
842.011 772.545 L
843.074 773.826 L
844.137 774.887 L
845.2 775.941 L
846.263 776.99 L
847.326 778.034 L
848.389 779.073 L
849.451 780.313 L
850.514 781.341 L
851.577 782.364 L
852.64 783.369 L
853.703 784.353 L
854.766 785.318 L
855.829 786.449 L
856.891 787.372 L
857.954 788.277 L
859.017 789.164 L
860.08 790.035 L
861.143 790.89 L
862.206 791.892 L
863.269 792.695 L
864.331 793.466 L
865.394 794.206 L
866.457 794.916 L
867.52 795.597 L
868.583 796.376 L
869.646 796.996 L
870.709 797.588 L
871.771 798.153 L
872.834 798.798 L
873.897 799.308 L
874.96 799.794 L
876.023 800.256 L
877.086 800.694 L
878.149 801.108 L
879.211 801.5 L
880.274 801.94 L
881.337 802.283 L
882.4 802.604 L
883.463 802.91 L
884.526 803.212 L
885.589 803.509 L
886.651 803.803 L
887.714 804.093 L
888.777 804.378 L
889.84 804.716 L
890.903 804.994 L
891.966 805.268 L
893.029 805.539 L
894.091 805.792 L
895.154 806.008 L
896.217 806.188 L
897.28 806.355 L
898.343 806.454 L
899.406 806.518 L
900.469 806.547 L
901.531 806.541 L
902.594 806.501 L
903.657 806.427 L
904.72 806.317 L
905.783 806.171 L
906.846 805.947 L
907.909 805.722 L
908.971 805.461 L
910.034 805.165 L
911.097 804.835 L
912.16 804.471 L
913.223 804.074 L
914.286 803.644 L
915.349 803.182 L
916.411 802.711 L
917.474 802.247 L
918.537 801.788 L
919.6 801.245 L
920.663 800.799 L
921.726 800.358 L
922.789 799.923 L
923.851 799.493 L
924.914 799.069 L
925.977 798.649 L
927.04 798.234 L
928.103 797.806 L
929.166 797.352 L
930.229 796.873 L
931.291 796.37 L
932.354 795.843 L
933.417 795.292 L
934.48 794.718 L
935.543 794 L
936.606 793.378 L
937.669 792.734 L
938.731 792.069 L
939.794 791.381 L
940.857 790.665 L
941.92 789.924 L
942.983 789.158 L
944.046 788.367 L
945.109 787.553 L
946.171 786.715 L
947.234 785.855 L
948.297 784.974 L
949.36 784.072 L
950.423 783.15 L
951.486 782.215 L
952.549 781.278 L
953.611 780.151 L
954.674 779.209 L
955.737 778.266 L
956.8 777.32 L
957.863 776.373 L
958.926 775.424 L
959.989 774.474 L
961.051 773.522 L
962.114 772.57 L
963.177 771.624 L
964.24 770.698 L
965.303 769.791 L
966.366 768.901 L
967.429 768.029 L
968.491 767.174 L
969.554 766.336 L
970.617 765.514 L
971.68 764.547 L
972.743 763.759 L
973.806 762.985 L
974.869 762.226 L
975.931 761.48 L
976.994 760.748 L
978.057 760.029 L
979.12 759.324 L
980.183 758.632 L
981.246 757.952 L
982.309 757.285 L
983.371 756.63 L
984.434 755.987 L
985.497 755.356 L
986.56 754.742 L
987.623 754.155 L
988.686 753.598 L
989.749 753.069 L
990.811 752.568 L
991.874 752.093 L
992.937 751.645 L
994 751.223 L
995.063 750.826 L
996.126 750.453 L
997.189 750.039 L
998.251 749.72 L
999.314 749.43 L
1000.377 749.166 L
1001.44 748.929 L
1002.503 748.718 L
1003.566 748.533 L
1004.629 748.372 L
1005.691 748.237 L
1006.754 748.126 L
1007.817 748.039 L
1008.88 747.976 L
1009.943 747.931 L
1011.006 747.887 L
1012.069 747.844 L
1013.131 747.801 L
1014.194 747.759 L
1015.257 747.717 L
1016.32 747.676 L
1017.383 747.635 L
1018.446 747.595 L
1019.509 747.555 L
1020.571 747.516 L
1021.634 747.482 L
1022.697 747.481 L
1023.76 747.517 L
1024.823 747.59 L
1025.886 747.7 L
1026.949 747.846 L
1028.011 748.027 L
1029.074 748.244 L
1030.137 748.495 L
1031.2 748.781 L
1032.263 749.101 L
1033.326 749.454 L
1034.389 749.834 L
1035.451 750.24 L
1036.514 750.673 L
1037.577 751.131 L
1038.64 751.615 L
1039.703 752.123 L
1040.766 752.655 L
1041.829 753.21 L
1042.891 753.789 L
1043.954 754.39 L
1045.017 755.013 L
1046.08 755.656 L
1047.143 756.318 L
1048.206 756.999 L
1049.269 757.699 L
1050.331 758.417 L
1051.394 759.153 L
1052.457 759.906 L
1053.52 760.677 L
1054.583 761.464 L
1055.646 762.267 L
1056.709 763.085 L
1057.771 763.917 L
1058.834 764.761 L
1059.897 765.616 L
1060.96 766.482 L
1062.023 767.359 L
1063.086 768.247 L
1064.149 769.144 L
1065.211 770.051 L
1066.274 770.967 L
1067.337 771.892 L
1068.4 772.825 L
1069.463 773.757 L
1070.526 774.686 L
1071.589 775.612 L
1072.651 776.536 L
1073.714 777.456 L
1074.777 778.373 L
1075.84 779.287 L
1076.903 780.198 L
1077.966 781.105 L
1079.029 782.01 L
1080.091 782.91 L
1081.154 783.795 L
1082.217 784.662 L
1083.28 785.51 L
1084.343 786.176 L
1085.406 786.992 L
1086.469 787.792 L
1087.531 788.576 L
1088.594 789.343 L
1089.657 790.094 L
1090.72 790.829 L
1091.783 791.549 L
1092.846 792.255 L
1093.909 792.945 L
1094.971 793.621 L
1096.034 794.283 L
1097.097 794.93 L
1098.16 795.565 L
1099.223 796.187 L
1100.286 796.795 L
1101.349 797.392 L
1102.411 797.976 L
1103.474 798.549 L
1104.537 799.11 L
1105.6 799.66 L
1106.663 800.199 L
1107.726 800.729 L
1108.789 801.248 L
1109.851 801.758 L
1110.914 802.259 L
1111.977 802.752 L
1113.04 803.139 L
1114.103 803.616 L
1115.166 804.085 L
1116.229 804.531 L
1117.291 804.943 L
1118.354 805.321 L
1119.417 805.668 L
1120.48 805.983 L
1121.543 806.267 L
1122.606 806.521 L
1123.669 806.744 L
1124.731 806.938 L
1125.794 807.104 L
1126.857 807.24 L
1127.92 807.343 L
1128.983 807.408 L
1130.046 807.437 L
1131.109 807.429 L
1132.171 807.385 L
1133.234 807.306 L
1134.297 807.217 L
1135.36 807.075 L
1136.423 806.898 L
1137.486 806.687 L
1138.549 806.442 L
1139.611 806.16 L
1140.674 805.84 L
1141.737 805.48 L
1142.8 805.083 L
1143.863 804.739 L
1144.926 804.276 L
1145.989 803.777 L
1147.051 803.243 L
1148.114 802.674 L
1149.177 802.073 L
1150.24 801.438 L
1151.303 800.77 L
1152.366 800.068 L
1153.429 799.331 L
1154.491 798.562 L
1155.554 797.76 L
1156.617 796.927 L
1157.68 796.239 L
1158.743 795.353 L
1159.806 794.438 L
1160.869 793.496 L
1161.931 792.528 L
1162.994 791.539 L
1164.057 790.539 L
1165.12 789.528 L
1166.183 788.506 L
1167.246 787.681 L
1168.309 786.64 L
1169.371 785.59 L
1170.434 784.531 L
1171.497 783.463 L
1172.56 782.602 L
1173.623 781.519 L
1174.686 780.43 L
1175.749 779.338 L
1176.811 778.246 L
1177.874 777.37 L
1178.937 776.275 L
1180 775.178 L
1181.063 774.08 L
1182.126 772.981 L
1183.189 772.102 L
1184.251 771.001 L
1185.314 769.901 L
1186.377 768.805 L
1187.44 767.735 L
1188.503 766.688 L
1189.566 765.868 L
1190.629 764.863 L
1191.691 763.879 L
1192.754 762.917 L
1193.817 761.975 L
1194.88 761.236 L
1195.943 760.33 L
1197.006 759.442 L
1198.069 758.572 L
1199.131 757.72 L
1200.194 757.05 L
1201.257 756.229 L
1202.32 755.424 L
1203.383 754.635 L
1204.446 754.014 L
1205.509 753.253 L
1206.571 752.506 L
1207.634 751.773 L
1208.697 751.055 L
1209.76 750.493 L
1210.823 749.82 L
1211.886 749.181 L
1212.949 748.574 L
1214.011 748 L
1215.074 747.562 L
1216.137 747.043 L
1217.2 746.553 L
1218.263 746.093 L
1219.326 745.745 L
1220.389 745.336 L
1221.451 744.954 L
1222.514 744.605 L
1223.577 744.289 L
1224.64 744.005 L
1225.703 743.753 L
1226.766 743.532 L
1227.829 743.341 L
1228.891 743.181 L
1229.954 743.05 L
1231.017 742.966 L
1232.08 742.887 L
1233.143 742.838 L
1234.206 742.824 L
1235.269 742.848 L
1236.331 742.907 L
1237.394 743.002 L
1238.457 743.132 L
1239.52 743.297 L
1240.583 743.453 L
1241.646 743.678 L
1242.709 743.937 L
1243.771 744.227 L
1244.834 744.551 L
1245.897 744.906 L
1246.96 745.213 L
1248.023 745.625 L
1249.086 746.067 L
1250.149 746.54 L
1251.211 747.042 L
1252.274 747.573 L
1253.337 748.018 L
1254.4 748.599 L
1255.463 749.207 L
1256.526 749.838 L
1257.589 750.337 L
1258.651 750.952 L
1259.714 751.557 L
1260.777 752.151 L
1261.84 752.62 L
1262.903 753.197 L
1263.966 753.765 L
1265.029 754.324 L
1266.091 754.875 L
1267.154 755.417 L
1268.217 755.846 L
1269.28 756.4 L
1270.343 756.98 L
1271.406 757.585 L
1272.469 758.215 L
1273.531 758.736 L
1274.594 759.408 L
1275.657 760.104 L
1276.72 760.822 L
1277.783 761.563 L
1278.846 762.17 L
1279.909 762.948 L
1280.971 763.74 L
1282.034 764.542 L
1283.097 765.191 L
1284.16 766.011 L
1285.223 766.841 L
1286.286 767.68 L
1287.349 768.528 L
1288.411 769.213 L
1289.474 770.077 L
1290.537 770.949 L
1291.6 771.828 L
1292.663 772.711 L
1293.726 773.42 L
1294.789 774.307 L
1295.851 775.196 L
1296.914 776.087 L
1297.977 776.979 L
1299.04 777.694 L
1300.103 778.589 L
1301.166 779.484 L
1302.229 780.38 L
1303.291 781.097 L
1304.354 781.981 L
1305.417 782.847 L
1306.48 783.693 L
1307.543 784.358 L
1308.606 785.172 L
1309.669 785.969 L
1310.731 786.749 L
1311.794 787.361 L
1312.857 788.111 L
1313.92 788.846 L
1314.983 789.564 L
1316.046 790.128 L
1317.109 790.82 L
1318.171 791.498 L
1319.234 792.163 L
1320.297 792.685 L
1321.36 793.327 L
1322.423 793.956 L
1323.486 794.452 L
1324.549 795.061 L
1325.611 795.659 L
1326.674 796.247 L
1327.737 796.701 L
1328.8 797.238 L
1329.863 797.743 L
1330.926 798.217 L
1331.989 798.574 L
1333.051 798.992 L
1334.114 799.381 L
1335.177 799.74 L
1336.24 800.007 L
1337.303 800.314 L
1338.366 800.595 L
1339.429 800.845 L
1340.491 801.022 L
1341.554 801.216 L
1342.617 801.378 L
1343.68 801.509 L
1344.743 801.611 L
1345.806 801.67 L
1346.869 801.718 L
1347.931 801.738 L
1348.994 801.732 L
1350.057 801.7 L
1351.12 801.637 L
1352.183 801.541 L
1353.246 801.44 L
1354.309 801.284 L
1355.371 801.096 L
1356.434 800.923 L
1357.497 800.677 L
1358.56 800.401 L
1359.623 800.158 L
1360.686 799.826 L
1361.749 799.464 L
1362.811 799.153 L
1363.874 798.735 L
1364.937 798.285 L
1366 797.902 L
1367.063 797.396 L
1368.126 796.859 L
1369.189 796.293 L
1370.251 795.82 L
1371.314 795.202 L
1372.377 794.557 L
1373.44 794.022 L
1374.503 793.332 L
1375.566 792.626 L
1376.629 792.051 L
1377.691 791.32 L
1378.754 790.575 L
1379.817 789.969 L
1380.88 789.2 L
1381.943 788.418 L
1383.006 787.624 L
1384.069 786.98 L
1385.131 786.165 L
1386.194 785.339 L
1387.257 784.671 L
1388.32 783.83 L
1389.383 782.98 L
1390.446 782.294 L
1391.509 781.431 L
1392.571 780.559 L
1393.634 779.857 L
1394.697 778.973 L
1395.76 778.081 L
1396.823 777.364 L
1397.886 776.462 L
1398.949 775.561 L
1400.011 774.842 L
1401.074 773.945 L
1402.137 773.049 L
1403.2 772.154 L
1404.263 771.44 L
1405.326 770.548 L
1406.389 769.657 L
1407.451 768.945 L
1408.514 768.056 L
1409.577 767.346 L
1410.64 766.472 L
1411.703 765.614 L
1412.766 764.939 L
1413.829 764.109 L
1414.891 763.294 L
1415.954 762.653 L
1417.017 761.863 L
1418.08 761.088 L
1419.143 760.477 L
1420.206 759.725 L
1421.269 758.985 L
1422.331 758.402 L
1423.394 757.683 L
1424.457 757.116 L
1425.52 756.416 L
1426.583 755.728 L
1427.646 755.184 L
1428.709 754.514 L
1429.771 753.854 L
1430.834 753.334 L
1431.897 752.692 L
1432.96 752.186 L
1434.023 751.578 L
1435.086 750.998 L
1436.149 750.554 L
1437.211 750.024 L
1438.274 749.521 L
1439.337 749.138 L
1440.4 748.683 L
1441.463 748.253 L
1442.526 747.928 L
1443.589 747.544 L
1444.651 747.185 L
1445.714 746.921 L
1446.777 746.621 L
1447.84 746.354 L
1448.903 746.165 L
1449.966 745.957 L
1451.029 745.782 L
1452.091 745.664 L
1453.154 745.546 L
1454.217 745.458 L
1455.28 745.409 L
1456.343 745.376 L
1457.406 745.355 L
1458.469 745.338 L
1459.531 745.318 L
1460.594 745.298 L
1461.657 745.282 L
1462.72 745.262 L
1463.783 745.242 L
1464.846 745.227 L
1465.909 745.208 L
1466.971 745.189 L
1468.034 745.174 L
1469.097 745.156 L
1470.16 745.137 L
1471.223 745.123 L
1472.286 745.105 L
1473.349 745.091 L
1474.411 745.074 L
1475.474 745.057 L
1476.537 745.043 L
1477.6 745.026 L
1478.663 745.01 L
1479.726 744.996 L
1480.789 744.995 L
1481.851 745.031 L
1482.914 745.086 L
1483.977 745.189 L
1485.04 745.327 L
1486.103 745.464 L
1487.166 745.666 L
1488.229 745.904 L
1489.291 746.119 L
1490.354 746.418 L
1491.417 746.682 L
1492.48 747.028 L
1493.543 747.301 L
1494.606 747.638 L
1495.669 747.972 L
1496.731 748.236 L
1497.794 748.563 L
1498.857 748.886 L
1499.92 749.141 L
1500.983 749.458 L
1502.046 749.708 L
1503.109 750.019 L
1504.171 750.34 L
1505.234 750.619 L
1506.297 750.997 L
1507.36 751.322 L
1508.423 751.755 L
1509.486 752.123 L
1510.549 752.61 L
1511.611 753.125 L
1512.674 753.558 L
1513.737 754.124 L
1514.8 754.717 L
1515.863 755.21 L
1516.926 755.846 L
1517.989 756.371 L
1519.051 757.046 L
1520.114 757.601 L
1521.177 758.314 L
1522.24 758.899 L
1523.303 759.648 L
1524.366 760.261 L
1525.429 761.044 L
1526.491 761.684 L
1527.554 762.498 L
1528.617 763.16 L
1529.68 763.997 L
1530.743 764.847 L
1531.806 765.535 L
1532.869 766.406 L
1533.931 767.11 L
1534.994 768.358 L
1536.057 769.262 L
1537.12 769.992 L
1538.183 770.912 L
1539.246 771.644 L
1540.309 772.364 L
1541.371 773.249 L
1542.434 773.944 L
1543.497 774.799 L
1544.56 775.472 L
1545.623 776.299 L
1546.686 776.949 L
1547.749 777.591 L
1548.811 778.381 L
1549.874 779.003 L
1550.937 779.769 L
1552 780.372 L
1553.063 780.968 L
1554.126 781.7 L
1555.189 782.278 L
1556.251 782.989 L
1557.314 783.549 L
1558.377 784.24 L
1559.44 784.784 L
1560.503 785.454 L
1561.566 785.983 L
1562.629 786.634 L
1563.691 787.147 L
1564.754 787.779 L
1565.817 788.278 L
1566.88 788.771 L
1567.943 789.378 L
1569.006 789.857 L
1570.069 790.448 L
1571.131 790.913 L
1572.194 791.487 L
1573.257 791.94 L
1574.32 792.387 L
1575.383 792.938 L
1576.446 793.372 L
1577.509 793.587 L
1578.571 793.587 L
1579.634 793.587 L
1580.697 793.587 L
1581.76 793.587 L
S
GR
GS
[0.75 0 0 0.75 0 0.25] CT
0 0.749 0.749 RC
[8 3 2 3] 0 setdash
2 LJ
0.667 LW
N
250 824.848 M
1738 824.848 L
S
GR
GS
[0.75 0 0 0.75 0 0.25] CT
1 GC
N
1639 123 M
1639 88 L
1725 88 L
1725 123 L
cp
f
GR
GS
[0.75 0 0 0.75 1257 73.47826] CT
/Helvetica 12 F
GS
[1 0 0 1 0 0] CT
0 4.5 moveto 
1 -1 scale
(data1) t 
GR
GR
GS
[0.75 0 0 0.75 0 0.25] CT
0 0.447 0.741 RC
1 LJ
0.667 LW
N
1643 97.638 M
1673 97.638 L
S
GR
GS
[0.75 0 0 0.75 1257 85.27174] CT
/Helvetica 12 F
GS
[1 0 0 1 0 0] CT
0 4.5 moveto 
1 -1 scale
(   y min) t 
GR
GR
GS
[0.75 0 0 0.75 0 0.25] CT
0 0.749 0.749 RC
[8 3 2 3] 0 setdash
2 LJ
0.667 LW
N
1643 113.362 M
1673 113.362 L
S
GR
GS
[0.75 0 0 0.75 0 0.25] CT
0.149 GC
10.0 ML
0.667 LW
N
1639 123 M
1639 88 L
1725 88 L
1725 123 L
cp
S
GR
%%Trailer
%%Pages: 1
%%EOF
